Region,Age,Male Population,Female Population,Date,Total Population
Piemonte,0,14145.0,13640.0,2020,27785.0
Piemonte,1,14705.0,14291.0,2020,28996.0
Piemonte,2,15653.0,15180.0,2020,30833.0
Piemonte,3,16397.0,15656.0,2020,32053.0
Piemonte,4,17102.0,15731.0,2020,32833.0
Piemonte,5,17441.0,16740.0,2020,34181.0
Piemonte,6,18050.0,17015.0,2020,35065.0
Piemonte,7,18764.0,17650.0,2020,36414.0
Piemonte,8,19087.0,17611.0,2020,36698.0
Piemonte,9,19364.0,18213.0,2020,37577.0
Piemonte,10,19847.0,18804.0,2020,38651.0
Piemonte,11,20113.0,18823.0,2020,38936.0
Piemonte,12,20004.0,18908.0,2020,38912.0
Piemonte,13,19762.0,18588.0,2020,38350.0
Piemonte,14,19675.0,18479.0,2020,38154.0
Piemonte,15,19753.0,18360.0,2020,38113.0
Piemonte,16,19757.0,18497.0,2020,38254.0
Piemonte,17,19259.0,18458.0,2020,37717.0
Piemonte,18,19628.0,18381.0,2020,38009.0
Piemonte,19,20637.0,19002.0,2020,39639.0
Piemonte,20,20734.0,18520.0,2020,39254.0
Piemonte,21,21331.0,18762.0,2020,40093.0
Piemonte,22,20902.0,19012.0,2020,39914.0
Piemonte,23,20810.0,18639.0,2020,39449.0
Piemonte,24,20627.0,18781.0,2020,39408.0
Piemonte,25,20662.0,19165.0,2020,39827.0
Piemonte,26,20976.0,19503.0,2020,40479.0
Piemonte,27,21675.0,20284.0,2020,41959.0
Piemonte,28,21786.0,20520.0,2020,42306.0
Piemonte,29,22538.0,20963.0,2020,43501.0
Piemonte,30,22017.0,20897.0,2020,42914.0
Piemonte,31,22635.0,21550.0,2020,44185.0
Piemonte,32,21795.0,21395.0,2020,43190.0
Piemonte,33,22323.0,21565.0,2020,43888.0
Piemonte,34,22741.0,22372.0,2020,45113.0
Piemonte,35,22748.0,22647.0,2020,45395.0
Piemonte,36,23519.0,23286.0,2020,46805.0
Piemonte,37,24452.0,24252.0,2020,48704.0
Piemonte,38,24403.0,24499.0,2020,48902.0
Piemonte,39,25117.0,25154.0,2020,50271.0
Piemonte,40,25911.0,25657.0,2020,51568.0
Piemonte,41,27565.0,27588.0,2020,55153.0
Piemonte,42,28821.0,29281.0,2020,58102.0
Piemonte,43,30200.0,30574.0,2020,60774.0
Piemonte,44,31976.0,32480.0,2020,64456.0
Piemonte,45,33644.0,33676.0,2020,67320.0
Piemonte,46,33715.0,33500.0,2020,67215.0
Piemonte,47,34413.0,34456.0,2020,68869.0
Piemonte,48,34671.0,35322.0,2020,69993.0
Piemonte,49,34385.0,34910.0,2020,69295.0
Piemonte,50,35587.0,36165.0,2020,71752.0
Piemonte,51,35346.0,35893.0,2020,71239.0
Piemonte,52,35206.0,35985.0,2020,71191.0
Piemonte,53,35622.0,36102.0,2020,71724.0
Piemonte,54,35273.0,36100.0,2020,71373.0
Piemonte,55,35588.0,36833.0,2020,72421.0
Piemonte,56,33214.0,34336.0,2020,67550.0
Piemonte,57,31664.0,33346.0,2020,65010.0
Piemonte,58,31334.0,32928.0,2020,64262.0
Piemonte,59,30245.0,31931.0,2020,62176.0
Piemonte,60,29727.0,30853.0,2020,60580.0
Piemonte,61,28732.0,30166.0,2020,58898.0
Piemonte,62,28451.0,30065.0,2020,58516.0
Piemonte,63,27618.0,29505.0,2020,57123.0
Piemonte,64,27097.0,28873.0,2020,55970.0
Piemonte,65,26451.0,28710.0,2020,55161.0
Piemonte,66,25577.0,27574.0,2020,53151.0
Piemonte,67,25523.0,27418.0,2020,52941.0
Piemonte,68,24613.0,27272.0,2020,51885.0
Piemonte,69,25514.0,28492.0,2020,54006.0
Piemonte,70,25785.0,28591.0,2020,54376.0
Piemonte,71,26824.0,30125.0,2020,56949.0
Piemonte,72,26107.0,29252.0,2020,55359.0
Piemonte,73,25079.0,28530.0,2020,53609.0
Piemonte,74,18908.0,21790.0,2020,40698.0
Piemonte,75,19831.0,23396.0,2020,43227.0
Piemonte,76,19100.0,23468.0,2020,42568.0
Piemonte,77,19110.0,23452.0,2020,42562.0
Piemonte,78,18710.0,23720.0,2020,42430.0
Piemonte,79,19977.0,25661.0,2020,45638.0
Piemonte,80,19222.0,25183.0,2020,44405.0
Piemonte,81,18149.0,24084.0,2020,42233.0
Piemonte,82,15730.0,21671.0,2020,37401.0
Piemonte,83,13802.0,19491.0,2020,33293.0
Piemonte,84,12837.0,19270.0,2020,32107.0
Piemonte,85,11060.0,17670.0,2020,28730.0
Piemonte,86,9391.0,16050.0,2020,25441.0
Piemonte,87,8226.0,14955.0,2020,23181.0
Piemonte,88,7138.0,13711.0,2020,20849.0
Piemonte,89,6328.0,12744.0,2020,19072.0
Piemonte,90,4736.0,10477.0,2020,15213.0
Piemonte,91,3580.0,8644.0,2020,12224.0
Piemonte,92,2813.0,7260.0,2020,10073.0
Piemonte,93,1934.0,5762.0,2020,7696.0
Piemonte,94,1373.0,4440.0,2020,5813.0
Piemonte,95,966.0,3325.0,2020,4291.0
Piemonte,96,704.0,2549.0,2020,3253.0
Piemonte,97,437.0,1974.0,2020,2411.0
Piemonte,98,276.0,1334.0,2020,1610.0
Piemonte,99,166.0,842.0,2020,1008.0
Piemonte,100,142.0,954.0,2020,1096.0
Piemonte,Totale,2095058.0,2216159.0,2020,4311217.0
Valle d'Aosta/Vallée d'Aoste,0,418.0,417.0,2020,835.0
Valle d'Aosta/Vallée d'Aoste,1,476.0,417.0,2020,893.0
Valle d'Aosta/Vallée d'Aoste,2,475.0,413.0,2020,888.0
Valle d'Aosta/Vallée d'Aoste,3,498.0,453.0,2020,951.0
Valle d'Aosta/Vallée d'Aoste,4,485.0,476.0,2020,961.0
Valle d'Aosta/Vallée d'Aoste,5,550.0,500.0,2020,1050.0
Valle d'Aosta/Vallée d'Aoste,6,519.0,514.0,2020,1033.0
Valle d'Aosta/Vallée d'Aoste,7,573.0,551.0,2020,1124.0
Valle d'Aosta/Vallée d'Aoste,8,608.0,574.0,2020,1182.0
Valle d'Aosta/Vallée d'Aoste,9,581.0,574.0,2020,1155.0
Valle d'Aosta/Vallée d'Aoste,10,639.0,585.0,2020,1224.0
Valle d'Aosta/Vallée d'Aoste,11,619.0,585.0,2020,1204.0
Valle d'Aosta/Vallée d'Aoste,12,623.0,584.0,2020,1207.0
Valle d'Aosta/Vallée d'Aoste,13,652.0,583.0,2020,1235.0
Valle d'Aosta/Vallée d'Aoste,14,582.0,560.0,2020,1142.0
Valle d'Aosta/Vallée d'Aoste,15,583.0,592.0,2020,1175.0
Valle d'Aosta/Vallée d'Aoste,16,595.0,587.0,2020,1182.0
Valle d'Aosta/Vallée d'Aoste,17,595.0,520.0,2020,1115.0
Valle d'Aosta/Vallée d'Aoste,18,625.0,558.0,2020,1183.0
Valle d'Aosta/Vallée d'Aoste,19,636.0,590.0,2020,1226.0
Valle d'Aosta/Vallée d'Aoste,20,622.0,570.0,2020,1192.0
Valle d'Aosta/Vallée d'Aoste,21,633.0,568.0,2020,1201.0
Valle d'Aosta/Vallée d'Aoste,22,588.0,544.0,2020,1132.0
Valle d'Aosta/Vallée d'Aoste,23,630.0,586.0,2020,1216.0
Valle d'Aosta/Vallée d'Aoste,24,610.0,544.0,2020,1154.0
Valle d'Aosta/Vallée d'Aoste,25,581.0,561.0,2020,1142.0
Valle d'Aosta/Vallée d'Aoste,26,586.0,550.0,2020,1136.0
Valle d'Aosta/Vallée d'Aoste,27,650.0,583.0,2020,1233.0
Valle d'Aosta/Vallée d'Aoste,28,619.0,577.0,2020,1196.0
Valle d'Aosta/Vallée d'Aoste,29,625.0,643.0,2020,1268.0
Valle d'Aosta/Vallée d'Aoste,30,660.0,578.0,2020,1238.0
Valle d'Aosta/Vallée d'Aoste,31,651.0,630.0,2020,1281.0
Valle d'Aosta/Vallée d'Aoste,32,615.0,626.0,2020,1241.0
Valle d'Aosta/Vallée d'Aoste,33,605.0,639.0,2020,1244.0
Valle d'Aosta/Vallée d'Aoste,34,657.0,642.0,2020,1299.0
Valle d'Aosta/Vallée d'Aoste,35,664.0,646.0,2020,1310.0
Valle d'Aosta/Vallée d'Aoste,36,702.0,681.0,2020,1383.0
Valle d'Aosta/Vallée d'Aoste,37,679.0,730.0,2020,1409.0
Valle d'Aosta/Vallée d'Aoste,38,657.0,672.0,2020,1329.0
Valle d'Aosta/Vallée d'Aoste,39,758.0,682.0,2020,1440.0
Valle d'Aosta/Vallée d'Aoste,40,723.0,701.0,2020,1424.0
Valle d'Aosta/Vallée d'Aoste,41,881.0,827.0,2020,1708.0
Valle d'Aosta/Vallée d'Aoste,42,838.0,821.0,2020,1659.0
Valle d'Aosta/Vallée d'Aoste,43,862.0,920.0,2020,1782.0
Valle d'Aosta/Vallée d'Aoste,44,890.0,951.0,2020,1841.0
Valle d'Aosta/Vallée d'Aoste,45,985.0,970.0,2020,1955.0
Valle d'Aosta/Vallée d'Aoste,46,997.0,1006.0,2020,2003.0
Valle d'Aosta/Vallée d'Aoste,47,984.0,1033.0,2020,2017.0
Valle d'Aosta/Vallée d'Aoste,48,1022.0,1080.0,2020,2102.0
Valle d'Aosta/Vallée d'Aoste,49,1014.0,1050.0,2020,2064.0
Valle d'Aosta/Vallée d'Aoste,50,1078.0,1123.0,2020,2201.0
Valle d'Aosta/Vallée d'Aoste,51,1035.0,1077.0,2020,2112.0
Valle d'Aosta/Vallée d'Aoste,52,1064.0,1111.0,2020,2175.0
Valle d'Aosta/Vallée d'Aoste,53,1103.0,1100.0,2020,2203.0
Valle d'Aosta/Vallée d'Aoste,54,1055.0,1058.0,2020,2113.0
Valle d'Aosta/Vallée d'Aoste,55,1146.0,1116.0,2020,2262.0
Valle d'Aosta/Vallée d'Aoste,56,1060.0,1018.0,2020,2078.0
Valle d'Aosta/Vallée d'Aoste,57,929.0,983.0,2020,1912.0
Valle d'Aosta/Vallée d'Aoste,58,1000.0,940.0,2020,1940.0
Valle d'Aosta/Vallée d'Aoste,59,846.0,915.0,2020,1761.0
Valle d'Aosta/Vallée d'Aoste,60,905.0,952.0,2020,1857.0
Valle d'Aosta/Vallée d'Aoste,61,817.0,849.0,2020,1666.0
Valle d'Aosta/Vallée d'Aoste,62,813.0,848.0,2020,1661.0
Valle d'Aosta/Vallée d'Aoste,63,799.0,799.0,2020,1598.0
Valle d'Aosta/Vallée d'Aoste,64,754.0,868.0,2020,1622.0
Valle d'Aosta/Vallée d'Aoste,65,765.0,827.0,2020,1592.0
Valle d'Aosta/Vallée d'Aoste,66,792.0,768.0,2020,1560.0
Valle d'Aosta/Vallée d'Aoste,67,744.0,749.0,2020,1493.0
Valle d'Aosta/Vallée d'Aoste,68,737.0,773.0,2020,1510.0
Valle d'Aosta/Vallée d'Aoste,69,724.0,777.0,2020,1501.0
Valle d'Aosta/Vallée d'Aoste,70,748.0,834.0,2020,1582.0
Valle d'Aosta/Vallée d'Aoste,71,759.0,836.0,2020,1595.0
Valle d'Aosta/Vallée d'Aoste,72,746.0,735.0,2020,1481.0
Valle d'Aosta/Vallée d'Aoste,73,675.0,733.0,2020,1408.0
Valle d'Aosta/Vallée d'Aoste,74,489.0,593.0,2020,1082.0
Valle d'Aosta/Vallée d'Aoste,75,569.0,579.0,2020,1148.0
Valle d'Aosta/Vallée d'Aoste,76,580.0,622.0,2020,1202.0
Valle d'Aosta/Vallée d'Aoste,77,554.0,632.0,2020,1186.0
Valle d'Aosta/Vallée d'Aoste,78,524.0,659.0,2020,1183.0
Valle d'Aosta/Vallée d'Aoste,79,540.0,682.0,2020,1222.0
Valle d'Aosta/Vallée d'Aoste,80,477.0,637.0,2020,1114.0
Valle d'Aosta/Vallée d'Aoste,81,478.0,640.0,2020,1118.0
Valle d'Aosta/Vallée d'Aoste,82,398.0,577.0,2020,975.0
Valle d'Aosta/Vallée d'Aoste,83,338.0,513.0,2020,851.0
Valle d'Aosta/Vallée d'Aoste,84,296.0,468.0,2020,764.0
Valle d'Aosta/Vallée d'Aoste,85,242.0,440.0,2020,682.0
Valle d'Aosta/Vallée d'Aoste,86,236.0,439.0,2020,675.0
Valle d'Aosta/Vallée d'Aoste,87,192.0,380.0,2020,572.0
Valle d'Aosta/Vallée d'Aoste,88,175.0,357.0,2020,532.0
Valle d'Aosta/Vallée d'Aoste,89,162.0,355.0,2020,517.0
Valle d'Aosta/Vallée d'Aoste,90,136.0,276.0,2020,412.0
Valle d'Aosta/Vallée d'Aoste,91,96.0,246.0,2020,342.0
Valle d'Aosta/Vallée d'Aoste,92,63.0,205.0,2020,268.0
Valle d'Aosta/Vallée d'Aoste,93,50.0,164.0,2020,214.0
Valle d'Aosta/Vallée d'Aoste,94,49.0,117.0,2020,166.0
Valle d'Aosta/Vallée d'Aoste,95,20.0,82.0,2020,102.0
Valle d'Aosta/Vallée d'Aoste,96,16.0,73.0,2020,89.0
Valle d'Aosta/Vallée d'Aoste,97,12.0,51.0,2020,63.0
Valle d'Aosta/Vallée d'Aoste,98,5.0,44.0,2020,49.0
Valle d'Aosta/Vallée d'Aoste,99,4.0,25.0,2020,29.0
Valle d'Aosta/Vallée d'Aoste,100,6.0,24.0,2020,30.0
Valle d'Aosta/Vallée d'Aoste,Totale,61121.0,63913.0,2020,125034.0
Lombardia,0,37093.0,35467.0,2020,72560.0
Lombardia,1,39098.0,36924.0,2020,76022.0
Lombardia,2,41028.0,38592.0,2020,79620.0
Lombardia,3,42056.0,40244.0,2020,82300.0
Lombardia,4,43830.0,41237.0,2020,85067.0
Lombardia,5,44709.0,42533.0,2020,87242.0
Lombardia,6,45838.0,42983.0,2020,88821.0
Lombardia,7,47353.0,44660.0,2020,92013.0
Lombardia,8,48448.0,45543.0,2020,93991.0
Lombardia,9,50128.0,46654.0,2020,96782.0
Lombardia,10,50771.0,47893.0,2020,98664.0
Lombardia,11,50809.0,47928.0,2020,98737.0
Lombardia,12,50304.0,47264.0,2020,97568.0
Lombardia,13,50620.0,47347.0,2020,97967.0
Lombardia,14,49488.0,46241.0,2020,95729.0
Lombardia,15,49196.0,46883.0,2020,96079.0
Lombardia,16,48738.0,45352.0,2020,94090.0
Lombardia,17,48077.0,44769.0,2020,92846.0
Lombardia,18,48965.0,45473.0,2020,94438.0
Lombardia,19,50441.0,46118.0,2020,96559.0
Lombardia,20,50285.0,45505.0,2020,95790.0
Lombardia,21,51296.0,45312.0,2020,96608.0
Lombardia,22,50608.0,45548.0,2020,96156.0
Lombardia,23,50047.0,45646.0,2020,95693.0
Lombardia,24,49360.0,45629.0,2020,94989.0
Lombardia,25,49672.0,46619.0,2020,96291.0
Lombardia,26,50455.0,47959.0,2020,98414.0
Lombardia,27,52397.0,49840.0,2020,102237.0
Lombardia,28,52719.0,50695.0,2020,103414.0
Lombardia,29,54235.0,52332.0,2020,106567.0
Lombardia,30,54352.0,53202.0,2020,107554.0
Lombardia,31,56489.0,54323.0,2020,110812.0
Lombardia,32,55216.0,53877.0,2020,109093.0
Lombardia,33,55740.0,54378.0,2020,110118.0
Lombardia,34,57422.0,56430.0,2020,113852.0
Lombardia,35,59067.0,57477.0,2020,116544.0
Lombardia,36,60315.0,59273.0,2020,119588.0
Lombardia,37,62732.0,61380.0,2020,124112.0
Lombardia,38,63251.0,61744.0,2020,124995.0
Lombardia,39,64460.0,63071.0,2020,127531.0
Lombardia,40,66164.0,64610.0,2020,130774.0
Lombardia,41,70041.0,68064.0,2020,138105.0
Lombardia,42,73023.0,70983.0,2020,144006.0
Lombardia,43,75806.0,73739.0,2020,149545.0
Lombardia,44,80613.0,78690.0,2020,159303.0
Lombardia,45,83345.0,80832.0,2020,164177.0
Lombardia,46,82761.0,81260.0,2020,164021.0
Lombardia,47,83870.0,81567.0,2020,165437.0
Lombardia,48,84253.0,81331.0,2020,165584.0
Lombardia,49,83100.0,81021.0,2020,164121.0
Lombardia,50,84832.0,83430.0,2020,168262.0
Lombardia,51,84552.0,82788.0,2020,167340.0
Lombardia,52,83725.0,82957.0,2020,166682.0
Lombardia,53,85495.0,84157.0,2020,169652.0
Lombardia,54,84436.0,83800.0,2020,168236.0
Lombardia,55,83770.0,83187.0,2020,166957.0
Lombardia,56,77408.0,78489.0,2020,155897.0
Lombardia,57,73124.0,74733.0,2020,147857.0
Lombardia,58,70576.0,72608.0,2020,143184.0
Lombardia,59,67792.0,70250.0,2020,138042.0
Lombardia,60,65281.0,68668.0,2020,133949.0
Lombardia,61,62178.0,65238.0,2020,127416.0
Lombardia,62,60628.0,64086.0,2020,124714.0
Lombardia,63,59412.0,62993.0,2020,122405.0
Lombardia,64,56730.0,61918.0,2020,118648.0
Lombardia,65,55641.0,60253.0,2020,115894.0
Lombardia,66,53650.0,58088.0,2020,111738.0
Lombardia,67,52901.0,58131.0,2020,111032.0
Lombardia,68,51811.0,57818.0,2020,109629.0
Lombardia,69,53885.0,59808.0,2020,113693.0
Lombardia,70,53947.0,60389.0,2020,114336.0
Lombardia,71,55243.0,62509.0,2020,117752.0
Lombardia,72,53049.0,60453.0,2020,113502.0
Lombardia,73,53809.0,62153.0,2020,115962.0
Lombardia,74,39091.0,45685.0,2020,84776.0
Lombardia,75,40770.0,49059.0,2020,89829.0
Lombardia,76,39411.0,48388.0,2020,87799.0
Lombardia,77,39326.0,49065.0,2020,88391.0
Lombardia,78,38950.0,50014.0,2020,88964.0
Lombardia,79,41497.0,53401.0,2020,94898.0
Lombardia,80,39206.0,51554.0,2020,90760.0
Lombardia,81,36149.0,49382.0,2020,85531.0
Lombardia,82,30772.0,43613.0,2020,74385.0
Lombardia,83,26228.0,39047.0,2020,65275.0
Lombardia,84,24841.0,38863.0,2020,63704.0
Lombardia,85,21307.0,35346.0,2020,56653.0
Lombardia,86,18237.0,32392.0,2020,50629.0
Lombardia,87,15918.0,29830.0,2020,45748.0
Lombardia,88,13514.0,27035.0,2020,40549.0
Lombardia,89,11415.0,24828.0,2020,36243.0
Lombardia,90,8649.0,20681.0,2020,29330.0
Lombardia,91,6670.0,17382.0,2020,24052.0
Lombardia,92,5114.0,14465.0,2020,19579.0
Lombardia,93,3712.0,11581.0,2020,15293.0
Lombardia,94,2639.0,9290.0,2020,11929.0
Lombardia,95,1797.0,7186.0,2020,8983.0
Lombardia,96,1288.0,5346.0,2020,6634.0
Lombardia,97,819.0,3805.0,2020,4624.0
Lombardia,98,536.0,2792.0,2020,3328.0
Lombardia,99,312.0,1781.0,2020,2093.0
Lombardia,100,248.0,2070.0,2020,2318.0
Lombardia,Totale,4912375.0,5115227.0,2020,10027602.0
Trentino-Alto Adige/Südtirol,0,4909.0,4559.0,2020,9468.0
Trentino-Alto Adige/Südtirol,1,5008.0,4728.0,2020,9736.0
Trentino-Alto Adige/Südtirol,2,5147.0,4877.0,2020,10024.0
Trentino-Alto Adige/Südtirol,3,5260.0,5018.0,2020,10278.0
Trentino-Alto Adige/Südtirol,4,5324.0,5072.0,2020,10396.0
Trentino-Alto Adige/Südtirol,5,5460.0,5176.0,2020,10636.0
Trentino-Alto Adige/Südtirol,6,5493.0,5130.0,2020,10623.0
Trentino-Alto Adige/Südtirol,7,5584.0,5275.0,2020,10859.0
Trentino-Alto Adige/Südtirol,8,5581.0,5320.0,2020,10901.0
Trentino-Alto Adige/Südtirol,9,5744.0,5348.0,2020,11092.0
Trentino-Alto Adige/Südtirol,10,5670.0,5304.0,2020,10974.0
Trentino-Alto Adige/Südtirol,11,5787.0,5493.0,2020,11280.0
Trentino-Alto Adige/Südtirol,12,5813.0,5344.0,2020,11157.0
Trentino-Alto Adige/Südtirol,13,5794.0,5443.0,2020,11237.0
Trentino-Alto Adige/Südtirol,14,5976.0,5420.0,2020,11396.0
Trentino-Alto Adige/Südtirol,15,5943.0,5586.0,2020,11529.0
Trentino-Alto Adige/Südtirol,16,5857.0,5404.0,2020,11261.0
Trentino-Alto Adige/Südtirol,17,5783.0,5381.0,2020,11164.0
Trentino-Alto Adige/Südtirol,18,6042.0,5454.0,2020,11496.0
Trentino-Alto Adige/Südtirol,19,6060.0,5712.0,2020,11772.0
Trentino-Alto Adige/Südtirol,20,6093.0,5687.0,2020,11780.0
Trentino-Alto Adige/Südtirol,21,6137.0,5791.0,2020,11928.0
Trentino-Alto Adige/Südtirol,22,6230.0,5684.0,2020,11914.0
Trentino-Alto Adige/Südtirol,23,6140.0,5741.0,2020,11881.0
Trentino-Alto Adige/Südtirol,24,6065.0,5538.0,2020,11603.0
Trentino-Alto Adige/Südtirol,25,6043.0,5730.0,2020,11773.0
Trentino-Alto Adige/Südtirol,26,5954.0,5687.0,2020,11641.0
Trentino-Alto Adige/Südtirol,27,6191.0,5889.0,2020,12080.0
Trentino-Alto Adige/Südtirol,28,6207.0,5868.0,2020,12075.0
Trentino-Alto Adige/Südtirol,29,6279.0,5895.0,2020,12174.0
Trentino-Alto Adige/Südtirol,30,6112.0,5913.0,2020,12025.0
Trentino-Alto Adige/Südtirol,31,6165.0,5927.0,2020,12092.0
Trentino-Alto Adige/Südtirol,32,5993.0,5904.0,2020,11897.0
Trentino-Alto Adige/Südtirol,33,6057.0,5866.0,2020,11923.0
Trentino-Alto Adige/Südtirol,34,6205.0,6004.0,2020,12209.0
Trentino-Alto Adige/Südtirol,35,6249.0,6015.0,2020,12264.0
Trentino-Alto Adige/Südtirol,36,6379.0,6250.0,2020,12629.0
Trentino-Alto Adige/Südtirol,37,6586.0,6473.0,2020,13059.0
Trentino-Alto Adige/Südtirol,38,6545.0,6411.0,2020,12956.0
Trentino-Alto Adige/Südtirol,39,6604.0,6531.0,2020,13135.0
Trentino-Alto Adige/Südtirol,40,6524.0,6655.0,2020,13179.0
Trentino-Alto Adige/Südtirol,41,6928.0,6955.0,2020,13883.0
Trentino-Alto Adige/Südtirol,42,6992.0,6988.0,2020,13980.0
Trentino-Alto Adige/Südtirol,43,7169.0,7378.0,2020,14547.0
Trentino-Alto Adige/Südtirol,44,7545.0,7766.0,2020,15311.0
Trentino-Alto Adige/Südtirol,45,8134.0,8095.0,2020,16229.0
Trentino-Alto Adige/Südtirol,46,8040.0,8232.0,2020,16272.0
Trentino-Alto Adige/Südtirol,47,8243.0,8270.0,2020,16513.0
Trentino-Alto Adige/Südtirol,48,8520.0,8556.0,2020,17076.0
Trentino-Alto Adige/Südtirol,49,8341.0,8421.0,2020,16762.0
Trentino-Alto Adige/Südtirol,50,8989.0,8645.0,2020,17634.0
Trentino-Alto Adige/Südtirol,51,8817.0,8660.0,2020,17477.0
Trentino-Alto Adige/Südtirol,52,8619.0,8797.0,2020,17416.0
Trentino-Alto Adige/Südtirol,53,8906.0,8878.0,2020,17784.0
Trentino-Alto Adige/Südtirol,54,9110.0,8799.0,2020,17909.0
Trentino-Alto Adige/Südtirol,55,8985.0,8838.0,2020,17823.0
Trentino-Alto Adige/Südtirol,56,8412.0,8284.0,2020,16696.0
Trentino-Alto Adige/Südtirol,57,7820.0,7961.0,2020,15781.0
Trentino-Alto Adige/Südtirol,58,7749.0,8003.0,2020,15752.0
Trentino-Alto Adige/Südtirol,59,7567.0,7505.0,2020,15072.0
Trentino-Alto Adige/Südtirol,60,7310.0,7234.0,2020,14544.0
Trentino-Alto Adige/Südtirol,61,6768.0,6877.0,2020,13645.0
Trentino-Alto Adige/Südtirol,62,6461.0,6891.0,2020,13352.0
Trentino-Alto Adige/Südtirol,63,6387.0,6504.0,2020,12891.0
Trentino-Alto Adige/Südtirol,64,6071.0,6249.0,2020,12320.0
Trentino-Alto Adige/Südtirol,65,5838.0,6063.0,2020,11901.0
Trentino-Alto Adige/Südtirol,66,5700.0,5988.0,2020,11688.0
Trentino-Alto Adige/Südtirol,67,5491.0,5863.0,2020,11354.0
Trentino-Alto Adige/Südtirol,68,5411.0,5608.0,2020,11019.0
Trentino-Alto Adige/Südtirol,69,5454.0,5900.0,2020,11354.0
Trentino-Alto Adige/Südtirol,70,5249.0,5572.0,2020,10821.0
Trentino-Alto Adige/Südtirol,71,5406.0,5725.0,2020,11131.0
Trentino-Alto Adige/Südtirol,72,5055.0,5694.0,2020,10749.0
Trentino-Alto Adige/Südtirol,73,5338.0,6105.0,2020,11443.0
Trentino-Alto Adige/Südtirol,74,3833.0,4306.0,2020,8139.0
Trentino-Alto Adige/Südtirol,75,4282.0,4980.0,2020,9262.0
Trentino-Alto Adige/Südtirol,76,4462.0,5248.0,2020,9710.0
Trentino-Alto Adige/Südtirol,77,4341.0,5150.0,2020,9491.0
Trentino-Alto Adige/Südtirol,78,4201.0,5143.0,2020,9344.0
Trentino-Alto Adige/Südtirol,79,3874.0,4965.0,2020,8839.0
Trentino-Alto Adige/Südtirol,80,3664.0,4703.0,2020,8367.0
Trentino-Alto Adige/Südtirol,81,3314.0,4374.0,2020,7688.0
Trentino-Alto Adige/Südtirol,82,2897.0,3881.0,2020,6778.0
Trentino-Alto Adige/Südtirol,83,2499.0,3670.0,2020,6169.0
Trentino-Alto Adige/Südtirol,84,2291.0,3556.0,2020,5847.0
Trentino-Alto Adige/Südtirol,85,2068.0,3354.0,2020,5422.0
Trentino-Alto Adige/Südtirol,86,1890.0,3106.0,2020,4996.0
Trentino-Alto Adige/Südtirol,87,1660.0,2863.0,2020,4523.0
Trentino-Alto Adige/Südtirol,88,1441.0,2595.0,2020,4036.0
Trentino-Alto Adige/Südtirol,89,1230.0,2516.0,2020,3746.0
Trentino-Alto Adige/Südtirol,90,917.0,2084.0,2020,3001.0
Trentino-Alto Adige/Südtirol,91,783.0,1755.0,2020,2538.0
Trentino-Alto Adige/Südtirol,92,611.0,1511.0,2020,2122.0
Trentino-Alto Adige/Südtirol,93,441.0,1226.0,2020,1667.0
Trentino-Alto Adige/Südtirol,94,319.0,1028.0,2020,1347.0
Trentino-Alto Adige/Südtirol,95,227.0,801.0,2020,1028.0
Trentino-Alto Adige/Südtirol,96,182.0,680.0,2020,862.0
Trentino-Alto Adige/Südtirol,97,122.0,511.0,2020,633.0
Trentino-Alto Adige/Südtirol,98,73.0,330.0,2020,403.0
Trentino-Alto Adige/Südtirol,99,42.0,226.0,2020,268.0
Trentino-Alto Adige/Südtirol,100,24.0,194.0,2020,218.0
Trentino-Alto Adige/Südtirol,Totale,531506.0,546563.0,2020,1078069.0
Veneto,0,17170.0,16105.0,2020,33275.0
Veneto,1,18182.0,17210.0,2020,35392.0
Veneto,2,19045.0,17886.0,2020,36931.0
Veneto,3,19652.0,18490.0,2020,38142.0
Veneto,4,20104.0,19164.0,2020,39268.0
Veneto,5,20775.0,19858.0,2020,40633.0
Veneto,6,21386.0,20228.0,2020,41614.0
Veneto,7,22410.0,21227.0,2020,43637.0
Veneto,8,22759.0,21680.0,2020,44439.0
Veneto,9,23631.0,22217.0,2020,45848.0
Veneto,10,23970.0,22523.0,2020,46493.0
Veneto,11,24379.0,23060.0,2020,47439.0
Veneto,12,24026.0,22912.0,2020,46938.0
Veneto,13,24202.0,22806.0,2020,47008.0
Veneto,14,24155.0,22562.0,2020,46717.0
Veneto,15,24434.0,22903.0,2020,47337.0
Veneto,16,23878.0,22581.0,2020,46459.0
Veneto,17,23819.0,22130.0,2020,45949.0
Veneto,18,23861.0,22057.0,2020,45918.0
Veneto,19,24839.0,23085.0,2020,47924.0
Veneto,20,24410.0,22854.0,2020,47264.0
Veneto,21,25119.0,22889.0,2020,48008.0
Veneto,22,25065.0,22951.0,2020,48016.0
Veneto,23,24876.0,22692.0,2020,47568.0
Veneto,24,24671.0,22235.0,2020,46906.0
Veneto,25,24364.0,22720.0,2020,47084.0
Veneto,26,24207.0,23235.0,2020,47442.0
Veneto,27,25406.0,23932.0,2020,49338.0
Veneto,28,25042.0,24193.0,2020,49235.0
Veneto,29,25868.0,24497.0,2020,50365.0
Veneto,30,25379.0,24753.0,2020,50132.0
Veneto,31,25784.0,25478.0,2020,51262.0
Veneto,32,25123.0,24462.0,2020,49585.0
Veneto,33,25022.0,25089.0,2020,50111.0
Veneto,34,26320.0,26407.0,2020,52727.0
Veneto,35,26351.0,26461.0,2020,52812.0
Veneto,36,27223.0,26760.0,2020,53983.0
Veneto,37,27887.0,28248.0,2020,56135.0
Veneto,38,28710.0,28546.0,2020,57256.0
Veneto,39,29856.0,28982.0,2020,58838.0
Veneto,40,30813.0,30528.0,2020,61341.0
Veneto,41,32922.0,32667.0,2020,65589.0
Veneto,42,33956.0,34078.0,2020,68034.0
Veneto,43,35831.0,35318.0,2020,71149.0
Veneto,44,37726.0,37068.0,2020,74794.0
Veneto,45,40012.0,39518.0,2020,79530.0
Veneto,46,39797.0,39192.0,2020,78989.0
Veneto,47,40703.0,39475.0,2020,80178.0
Veneto,48,40805.0,40398.0,2020,81203.0
Veneto,49,40992.0,40253.0,2020,81245.0
Veneto,50,42016.0,41333.0,2020,83349.0
Veneto,51,41273.0,41125.0,2020,82398.0
Veneto,52,41738.0,41276.0,2020,83014.0
Veneto,53,41925.0,41728.0,2020,83653.0
Veneto,54,41950.0,41685.0,2020,83635.0
Veneto,55,41863.0,42439.0,2020,84302.0
Veneto,56,39258.0,39684.0,2020,78942.0
Veneto,57,37709.0,38171.0,2020,75880.0
Veneto,58,36719.0,37491.0,2020,74210.0
Veneto,59,34573.0,35504.0,2020,70077.0
Veneto,60,34284.0,35243.0,2020,69527.0
Veneto,61,31863.0,33240.0,2020,65103.0
Veneto,62,31178.0,32416.0,2020,63594.0
Veneto,63,30267.0,32075.0,2020,62342.0
Veneto,64,29026.0,30934.0,2020,59960.0
Veneto,65,28673.0,30203.0,2020,58876.0
Veneto,66,27638.0,29141.0,2020,56779.0
Veneto,67,26815.0,28797.0,2020,55612.0
Veneto,68,26490.0,28180.0,2020,54670.0
Veneto,69,27004.0,29743.0,2020,56747.0
Veneto,70,26692.0,29001.0,2020,55693.0
Veneto,71,27070.0,30012.0,2020,57082.0
Veneto,72,26107.0,29235.0,2020,55342.0
Veneto,73,28001.0,31501.0,2020,59502.0
Veneto,74,18631.0,21794.0,2020,40425.0
Veneto,75,21355.0,24904.0,2020,46259.0
Veneto,76,21191.0,25451.0,2020,46642.0
Veneto,77,20078.0,24566.0,2020,44644.0
Veneto,78,19588.0,24041.0,2020,43629.0
Veneto,79,19956.0,25269.0,2020,45225.0
Veneto,80,19152.0,24113.0,2020,43265.0
Veneto,81,17182.0,23239.0,2020,40421.0
Veneto,82,14865.0,20744.0,2020,35609.0
Veneto,83,12690.0,19020.0,2020,31710.0
Veneto,84,12205.0,18519.0,2020,30724.0
Veneto,85,10761.0,17252.0,2020,28013.0
Veneto,86,8864.0,15053.0,2020,23917.0
Veneto,87,7593.0,14363.0,2020,21956.0
Veneto,88,6484.0,12947.0,2020,19431.0
Veneto,89,5643.0,12341.0,2020,17984.0
Veneto,90,4297.0,9879.0,2020,14176.0
Veneto,91,3334.0,8949.0,2020,12283.0
Veneto,92,2680.0,7639.0,2020,10319.0
Veneto,93,1940.0,5993.0,2020,7933.0
Veneto,94,1421.0,4847.0,2020,6268.0
Veneto,95,984.0,3644.0,2020,4628.0
Veneto,96,742.0,2875.0,2020,3617.0
Veneto,97,441.0,1971.0,2020,2412.0
Veneto,98,277.0,1387.0,2020,1664.0
Veneto,99,157.0,911.0,2020,1068.0
Veneto,100,157.0,985.0,2020,1142.0
Veneto,Totale,2389717.0,2489416.0,2020,4879133.0
Friuli-Venezia Giulia,0,3820.0,3630.0,2020,7450.0
Friuli-Venezia Giulia,1,4003.0,3799.0,2020,7802.0
Friuli-Venezia Giulia,2,4206.0,4023.0,2020,8229.0
Friuli-Venezia Giulia,3,4430.0,4185.0,2020,8615.0
Friuli-Venezia Giulia,4,4441.0,4274.0,2020,8715.0
Friuli-Venezia Giulia,5,4790.0,4453.0,2020,9243.0
Friuli-Venezia Giulia,6,4862.0,4564.0,2020,9426.0
Friuli-Venezia Giulia,7,5028.0,4816.0,2020,9844.0
Friuli-Venezia Giulia,8,5250.0,4771.0,2020,10021.0
Friuli-Venezia Giulia,9,5352.0,5058.0,2020,10410.0
Friuli-Venezia Giulia,10,5391.0,5159.0,2020,10550.0
Friuli-Venezia Giulia,11,5449.0,5085.0,2020,10534.0
Friuli-Venezia Giulia,12,5453.0,5281.0,2020,10734.0
Friuli-Venezia Giulia,13,5426.0,5264.0,2020,10690.0
Friuli-Venezia Giulia,14,5455.0,5056.0,2020,10511.0
Friuli-Venezia Giulia,15,5359.0,5221.0,2020,10580.0
Friuli-Venezia Giulia,16,5469.0,5048.0,2020,10517.0
Friuli-Venezia Giulia,17,5362.0,5022.0,2020,10384.0
Friuli-Venezia Giulia,18,5565.0,5021.0,2020,10586.0
Friuli-Venezia Giulia,19,5672.0,5272.0,2020,10944.0
Friuli-Venezia Giulia,20,5548.0,5038.0,2020,10586.0
Friuli-Venezia Giulia,21,5659.0,5062.0,2020,10721.0
Friuli-Venezia Giulia,22,5556.0,5020.0,2020,10576.0
Friuli-Venezia Giulia,23,5759.0,5115.0,2020,10874.0
Friuli-Venezia Giulia,24,5565.0,5002.0,2020,10567.0
Friuli-Venezia Giulia,25,5547.0,5045.0,2020,10592.0
Friuli-Venezia Giulia,26,5664.0,5097.0,2020,10761.0
Friuli-Venezia Giulia,27,5928.0,5487.0,2020,11415.0
Friuli-Venezia Giulia,28,5934.0,5627.0,2020,11561.0
Friuli-Venezia Giulia,29,6037.0,5661.0,2020,11698.0
Friuli-Venezia Giulia,30,6011.0,5690.0,2020,11701.0
Friuli-Venezia Giulia,31,6117.0,5893.0,2020,12010.0
Friuli-Venezia Giulia,32,5808.0,5729.0,2020,11537.0
Friuli-Venezia Giulia,33,6026.0,5830.0,2020,11856.0
Friuli-Venezia Giulia,34,6244.0,6150.0,2020,12394.0
Friuli-Venezia Giulia,35,6465.0,6133.0,2020,12598.0
Friuli-Venezia Giulia,36,6496.0,6154.0,2020,12650.0
Friuli-Venezia Giulia,37,6818.0,6568.0,2020,13386.0
Friuli-Venezia Giulia,38,6922.0,6567.0,2020,13489.0
Friuli-Venezia Giulia,39,7196.0,6812.0,2020,14008.0
Friuli-Venezia Giulia,40,7400.0,6991.0,2020,14391.0
Friuli-Venezia Giulia,41,8029.0,7635.0,2020,15664.0
Friuli-Venezia Giulia,42,8097.0,7818.0,2020,15915.0
Friuli-Venezia Giulia,43,8442.0,8432.0,2020,16874.0
Friuli-Venezia Giulia,44,9003.0,8868.0,2020,17871.0
Friuli-Venezia Giulia,45,9739.0,9581.0,2020,19320.0
Friuli-Venezia Giulia,46,9509.0,9624.0,2020,19133.0
Friuli-Venezia Giulia,47,9896.0,9842.0,2020,19738.0
Friuli-Venezia Giulia,48,9871.0,9911.0,2020,19782.0
Friuli-Venezia Giulia,49,9859.0,10130.0,2020,19989.0
Friuli-Venezia Giulia,50,10102.0,9969.0,2020,20071.0
Friuli-Venezia Giulia,51,10060.0,9923.0,2020,19983.0
Friuli-Venezia Giulia,52,10014.0,10203.0,2020,20217.0
Friuli-Venezia Giulia,53,10033.0,10224.0,2020,20257.0
Friuli-Venezia Giulia,54,10217.0,10270.0,2020,20487.0
Friuli-Venezia Giulia,55,10385.0,10439.0,2020,20824.0
Friuli-Venezia Giulia,56,9704.0,10044.0,2020,19748.0
Friuli-Venezia Giulia,57,9250.0,9430.0,2020,18680.0
Friuli-Venezia Giulia,58,9088.0,9131.0,2020,18219.0
Friuli-Venezia Giulia,59,8789.0,8808.0,2020,17597.0
Friuli-Venezia Giulia,60,8544.0,8803.0,2020,17347.0
Friuli-Venezia Giulia,61,7935.0,8419.0,2020,16354.0
Friuli-Venezia Giulia,62,7650.0,8311.0,2020,15961.0
Friuli-Venezia Giulia,63,7673.0,8074.0,2020,15747.0
Friuli-Venezia Giulia,64,7477.0,7900.0,2020,15377.0
Friuli-Venezia Giulia,65,7221.0,7881.0,2020,15102.0
Friuli-Venezia Giulia,66,7133.0,7867.0,2020,15000.0
Friuli-Venezia Giulia,67,6928.0,7881.0,2020,14809.0
Friuli-Venezia Giulia,68,6840.0,7754.0,2020,14594.0
Friuli-Venezia Giulia,69,7288.0,8210.0,2020,15498.0
Friuli-Venezia Giulia,70,7189.0,8023.0,2020,15212.0
Friuli-Venezia Giulia,71,7627.0,8511.0,2020,16138.0
Friuli-Venezia Giulia,72,7432.0,8632.0,2020,16064.0
Friuli-Venezia Giulia,73,7873.0,8887.0,2020,16760.0
Friuli-Venezia Giulia,74,5318.0,6044.0,2020,11362.0
Friuli-Venezia Giulia,75,6150.0,7290.0,2020,13440.0
Friuli-Venezia Giulia,76,5979.0,7092.0,2020,13071.0
Friuli-Venezia Giulia,77,5781.0,7220.0,2020,13001.0
Friuli-Venezia Giulia,78,5777.0,7183.0,2020,12960.0
Friuli-Venezia Giulia,79,5922.0,7479.0,2020,13401.0
Friuli-Venezia Giulia,80,5357.0,7086.0,2020,12443.0
Friuli-Venezia Giulia,81,4971.0,6683.0,2020,11654.0
Friuli-Venezia Giulia,82,4364.0,5988.0,2020,10352.0
Friuli-Venezia Giulia,83,3643.0,5517.0,2020,9160.0
Friuli-Venezia Giulia,84,3352.0,5204.0,2020,8556.0
Friuli-Venezia Giulia,85,2745.0,4750.0,2020,7495.0
Friuli-Venezia Giulia,86,2467.0,4319.0,2020,6786.0
Friuli-Venezia Giulia,87,2111.0,4056.0,2020,6167.0
Friuli-Venezia Giulia,88,1844.0,3648.0,2020,5492.0
Friuli-Venezia Giulia,89,1643.0,3559.0,2020,5202.0
Friuli-Venezia Giulia,90,1205.0,2954.0,2020,4159.0
Friuli-Venezia Giulia,91,987.0,2531.0,2020,3518.0
Friuli-Venezia Giulia,92,757.0,2220.0,2020,2977.0
Friuli-Venezia Giulia,93,559.0,1913.0,2020,2472.0
Friuli-Venezia Giulia,94,446.0,1529.0,2020,1975.0
Friuli-Venezia Giulia,95,346.0,1219.0,2020,1565.0
Friuli-Venezia Giulia,96,239.0,948.0,2020,1187.0
Friuli-Venezia Giulia,97,153.0,680.0,2020,833.0
Friuli-Venezia Giulia,98,101.0,581.0,2020,682.0
Friuli-Venezia Giulia,99,71.0,355.0,2020,426.0
Friuli-Venezia Giulia,100,51.0,341.0,2020,392.0
Friuli-Venezia Giulia,Totale,586719.0,619497.0,2020,1206216.0
Liguria,0,4421.0,4211.0,2020,8632.0
Liguria,1,4628.0,4343.0,2020,8971.0
Liguria,2,5002.0,4672.0,2020,9674.0
Liguria,3,5163.0,4763.0,2020,9926.0
Liguria,4,5224.0,4978.0,2020,10202.0
Liguria,5,5640.0,5218.0,2020,10858.0
Liguria,6,5691.0,5265.0,2020,10956.0
Liguria,7,5936.0,5654.0,2020,11590.0
Liguria,8,5847.0,5562.0,2020,11409.0
Liguria,9,6065.0,5865.0,2020,11930.0
Liguria,10,6259.0,6213.0,2020,12472.0
Liguria,11,6469.0,6269.0,2020,12738.0
Liguria,12,6546.0,5918.0,2020,12464.0
Liguria,13,6453.0,6186.0,2020,12639.0
Liguria,14,6525.0,6046.0,2020,12571.0
Liguria,15,6476.0,6172.0,2020,12648.0
Liguria,16,6461.0,5968.0,2020,12429.0
Liguria,17,6616.0,6162.0,2020,12778.0
Liguria,18,6656.0,6286.0,2020,12942.0
Liguria,19,6914.0,6325.0,2020,13239.0
Liguria,20,7000.0,6138.0,2020,13138.0
Liguria,21,7135.0,6253.0,2020,13388.0
Liguria,22,7003.0,6332.0,2020,13335.0
Liguria,23,7315.0,6331.0,2020,13646.0
Liguria,24,6956.0,6311.0,2020,13267.0
Liguria,25,6907.0,6443.0,2020,13350.0
Liguria,26,7031.0,6548.0,2020,13579.0
Liguria,27,7482.0,6845.0,2020,14327.0
Liguria,28,7183.0,6910.0,2020,14093.0
Liguria,29,7240.0,6960.0,2020,14200.0
Liguria,30,7202.0,6996.0,2020,14198.0
Liguria,31,7383.0,7157.0,2020,14540.0
Liguria,32,7340.0,6858.0,2020,14198.0
Liguria,33,7210.0,6890.0,2020,14100.0
Liguria,34,7499.0,7242.0,2020,14741.0
Liguria,35,7424.0,7196.0,2020,14620.0
Liguria,36,7653.0,7358.0,2020,15011.0
Liguria,37,7658.0,7336.0,2020,14994.0
Liguria,38,7866.0,7801.0,2020,15667.0
Liguria,39,7778.0,7755.0,2020,15533.0
Liguria,40,7977.0,8293.0,2020,16270.0
Liguria,41,8546.0,9040.0,2020,17586.0
Liguria,42,9131.0,9476.0,2020,18607.0
Liguria,43,9834.0,9954.0,2020,19788.0
Liguria,44,10483.0,10694.0,2020,21177.0
Liguria,45,11044.0,11532.0,2020,22576.0
Liguria,46,11419.0,11571.0,2020,22990.0
Liguria,47,12031.0,12191.0,2020,24222.0
Liguria,48,12152.0,12338.0,2020,24490.0
Liguria,49,12059.0,12605.0,2020,24664.0
Liguria,50,12409.0,12837.0,2020,25246.0
Liguria,51,12589.0,12896.0,2020,25485.0
Liguria,52,12273.0,13078.0,2020,25351.0
Liguria,53,12907.0,13433.0,2020,26340.0
Liguria,54,13136.0,13697.0,2020,26833.0
Liguria,55,13346.0,13701.0,2020,27047.0
Liguria,56,12352.0,13074.0,2020,25426.0
Liguria,57,11828.0,12631.0,2020,24459.0
Liguria,58,11465.0,12203.0,2020,23668.0
Liguria,59,11066.0,11764.0,2020,22830.0
Liguria,60,10916.0,11703.0,2020,22619.0
Liguria,61,10379.0,11235.0,2020,21614.0
Liguria,62,10357.0,10998.0,2020,21355.0
Liguria,63,10000.0,10763.0,2020,20763.0
Liguria,64,9564.0,10519.0,2020,20083.0
Liguria,65,9564.0,10415.0,2020,19979.0
Liguria,66,9146.0,10156.0,2020,19302.0
Liguria,67,8858.0,9806.0,2020,18664.0
Liguria,68,8680.0,9937.0,2020,18617.0
Liguria,69,9362.0,10417.0,2020,19779.0
Liguria,70,9203.0,10760.0,2020,19963.0
Liguria,71,9770.0,11254.0,2020,21024.0
Liguria,72,9871.0,11634.0,2020,21505.0
Liguria,73,9712.0,11765.0,2020,21477.0
Liguria,74,6997.0,8461.0,2020,15458.0
Liguria,75,7779.0,9526.0,2020,17305.0
Liguria,76,7473.0,9235.0,2020,16708.0
Liguria,77,7358.0,9609.0,2020,16967.0
Liguria,78,7468.0,9814.0,2020,17282.0
Liguria,79,7868.0,10477.0,2020,18345.0
Liguria,80,7476.0,10203.0,2020,17679.0
Liguria,81,7024.0,9879.0,2020,16903.0
Liguria,82,6199.0,9045.0,2020,15244.0
Liguria,83,5391.0,8201.0,2020,13592.0
Liguria,84,5022.0,7859.0,2020,12881.0
Liguria,85,4437.0,7193.0,2020,11630.0
Liguria,86,3997.0,6757.0,2020,10754.0
Liguria,87,3482.0,6453.0,2020,9935.0
Liguria,88,3015.0,5885.0,2020,8900.0
Liguria,89,2679.0,5613.0,2020,8292.0
Liguria,90,2105.0,4696.0,2020,6801.0
Liguria,91,1686.0,3890.0,2020,5576.0
Liguria,92,1313.0,3258.0,2020,4571.0
Liguria,93,909.0,2677.0,2020,3586.0
Liguria,94,692.0,2116.0,2020,2808.0
Liguria,95,471.0,1629.0,2020,2100.0
Liguria,96,325.0,1239.0,2020,1564.0
Liguria,97,221.0,953.0,2020,1174.0
Liguria,98,145.0,654.0,2020,799.0
Liguria,99,82.0,465.0,2020,547.0
Liguria,100,71.0,562.0,2020,633.0
Liguria,Totale,730371.0,794455.0,2020,1524826.0
Emilia-Romagna,0,15718.0,15196.0,2020,30914.0
Emilia-Romagna,1,17006.0,15773.0,2020,32779.0
Emilia-Romagna,2,17483.0,16256.0,2020,33739.0
Emilia-Romagna,3,18132.0,17215.0,2020,35347.0
Emilia-Romagna,4,18734.0,17773.0,2020,36507.0
Emilia-Romagna,5,19223.0,18227.0,2020,37450.0
Emilia-Romagna,6,19618.0,18767.0,2020,38385.0
Emilia-Romagna,7,20495.0,19098.0,2020,39593.0
Emilia-Romagna,8,20718.0,19658.0,2020,40376.0
Emilia-Romagna,9,21558.0,20162.0,2020,41720.0
Emilia-Romagna,10,21765.0,20652.0,2020,42417.0
Emilia-Romagna,11,21771.0,20392.0,2020,42163.0
Emilia-Romagna,12,21699.0,20175.0,2020,41874.0
Emilia-Romagna,13,21439.0,20067.0,2020,41506.0
Emilia-Romagna,14,21059.0,19784.0,2020,40843.0
Emilia-Romagna,15,20838.0,19620.0,2020,40458.0
Emilia-Romagna,16,20486.0,19008.0,2020,39494.0
Emilia-Romagna,17,20704.0,19111.0,2020,39815.0
Emilia-Romagna,18,20769.0,19141.0,2020,39910.0
Emilia-Romagna,19,21518.0,19308.0,2020,40826.0
Emilia-Romagna,20,21081.0,19047.0,2020,40128.0
Emilia-Romagna,21,21783.0,18687.0,2020,40470.0
Emilia-Romagna,22,21349.0,19144.0,2020,40493.0
Emilia-Romagna,23,21123.0,19286.0,2020,40409.0
Emilia-Romagna,24,21216.0,19141.0,2020,40357.0
Emilia-Romagna,25,21374.0,19848.0,2020,41222.0
Emilia-Romagna,26,21725.0,20162.0,2020,41887.0
Emilia-Romagna,27,22792.0,21605.0,2020,44397.0
Emilia-Romagna,28,23081.0,21897.0,2020,44978.0
Emilia-Romagna,29,23563.0,22756.0,2020,46319.0
Emilia-Romagna,30,23346.0,22804.0,2020,46150.0
Emilia-Romagna,31,23813.0,23070.0,2020,46883.0
Emilia-Romagna,32,23451.0,23413.0,2020,46864.0
Emilia-Romagna,33,23664.0,23774.0,2020,47438.0
Emilia-Romagna,34,24641.0,24687.0,2020,49328.0
Emilia-Romagna,35,25313.0,25169.0,2020,50482.0
Emilia-Romagna,36,25731.0,25890.0,2020,51621.0
Emilia-Romagna,37,26551.0,26649.0,2020,53200.0
Emilia-Romagna,38,26836.0,26777.0,2020,53613.0
Emilia-Romagna,39,27916.0,27746.0,2020,55662.0
Emilia-Romagna,40,28841.0,29157.0,2020,57998.0
Emilia-Romagna,41,30845.0,30875.0,2020,61720.0
Emilia-Romagna,42,32046.0,32276.0,2020,64322.0
Emilia-Romagna,43,33697.0,33819.0,2020,67516.0
Emilia-Romagna,44,35416.0,35578.0,2020,70994.0
Emilia-Romagna,45,37239.0,36828.0,2020,74067.0
Emilia-Romagna,46,37029.0,37014.0,2020,74043.0
Emilia-Romagna,47,37184.0,37042.0,2020,74226.0
Emilia-Romagna,48,37425.0,37303.0,2020,74728.0
Emilia-Romagna,49,36659.0,37039.0,2020,73698.0
Emilia-Romagna,50,36996.0,37380.0,2020,74376.0
Emilia-Romagna,51,36946.0,37027.0,2020,73973.0
Emilia-Romagna,52,36309.0,36534.0,2020,72843.0
Emilia-Romagna,53,36646.0,36868.0,2020,73514.0
Emilia-Romagna,54,35959.0,36508.0,2020,72467.0
Emilia-Romagna,55,36418.0,37256.0,2020,73674.0
Emilia-Romagna,56,33960.0,34918.0,2020,68878.0
Emilia-Romagna,57,32382.0,34068.0,2020,66450.0
Emilia-Romagna,58,31593.0,33399.0,2020,64992.0
Emilia-Romagna,59,30419.0,32511.0,2020,62930.0
Emilia-Romagna,60,29673.0,31756.0,2020,61429.0
Emilia-Romagna,61,28177.0,30263.0,2020,58440.0
Emilia-Romagna,62,27851.0,30115.0,2020,57966.0
Emilia-Romagna,63,27291.0,29618.0,2020,56909.0
Emilia-Romagna,64,26042.0,28431.0,2020,54473.0
Emilia-Romagna,65,24915.0,27965.0,2020,52880.0
Emilia-Romagna,66,23892.0,26640.0,2020,50532.0
Emilia-Romagna,67,23180.0,26523.0,2020,49703.0
Emilia-Romagna,68,22969.0,25856.0,2020,48825.0
Emilia-Romagna,69,23818.0,27236.0,2020,51054.0
Emilia-Romagna,70,24102.0,27349.0,2020,51451.0
Emilia-Romagna,71,25327.0,28751.0,2020,54078.0
Emilia-Romagna,72,25306.0,28161.0,2020,53467.0
Emilia-Romagna,73,25103.0,28807.0,2020,53910.0
Emilia-Romagna,74,17325.0,20463.0,2020,37788.0
Emilia-Romagna,75,19280.0,22565.0,2020,41845.0
Emilia-Romagna,76,18814.0,22309.0,2020,41123.0
Emilia-Romagna,77,18015.0,21897.0,2020,39912.0
Emilia-Romagna,78,18099.0,22185.0,2020,40284.0
Emilia-Romagna,79,18944.0,24327.0,2020,43271.0
Emilia-Romagna,80,18169.0,23619.0,2020,41788.0
Emilia-Romagna,81,17473.0,23127.0,2020,40600.0
Emilia-Romagna,82,15219.0,20252.0,2020,35471.0
Emilia-Romagna,83,12896.0,18388.0,2020,31284.0
Emilia-Romagna,84,12968.0,18660.0,2020,31628.0
Emilia-Romagna,85,11608.0,17673.0,2020,29281.0
Emilia-Romagna,86,9893.0,15674.0,2020,25567.0
Emilia-Romagna,87,8364.0,14026.0,2020,22390.0
Emilia-Romagna,88,7528.0,13162.0,2020,20690.0
Emilia-Romagna,89,6464.0,12503.0,2020,18967.0
Emilia-Romagna,90,5062.0,10217.0,2020,15279.0
Emilia-Romagna,91,4083.0,8996.0,2020,13079.0
Emilia-Romagna,92,3132.0,7753.0,2020,10885.0
Emilia-Romagna,93,2338.0,6285.0,2020,8623.0
Emilia-Romagna,94,1720.0,5254.0,2020,6974.0
Emilia-Romagna,95,1316.0,3998.0,2020,5314.0
Emilia-Romagna,96,858.0,3154.0,2020,4012.0
Emilia-Romagna,97,575.0,2234.0,2020,2809.0
Emilia-Romagna,98,406.0,1602.0,2020,2008.0
Emilia-Romagna,99,263.0,1026.0,2020,1289.0
Emilia-Romagna,100,232.0,1183.0,2020,1415.0
Emilia-Romagna,Totale,2173781.0,2290338.0,2020,4464119.0
Toscana,0,11780.0,11440.0,2020,23220.0
Toscana,1,12555.0,12158.0,2020,24713.0
Toscana,2,13426.0,12686.0,2020,26112.0
Toscana,3,13853.0,13178.0,2020,27031.0
Toscana,4,14333.0,13269.0,2020,27602.0
Toscana,5,14974.0,14187.0,2020,29161.0
Toscana,6,15197.0,14270.0,2020,29467.0
Toscana,7,15961.0,15328.0,2020,31289.0
Toscana,8,16251.0,15417.0,2020,31668.0
Toscana,9,16807.0,15897.0,2020,32704.0
Toscana,10,16895.0,15945.0,2020,32840.0
Toscana,11,17587.0,16269.0,2020,33856.0
Toscana,12,17432.0,16115.0,2020,33547.0
Toscana,13,17160.0,16116.0,2020,33276.0
Toscana,14,17146.0,16019.0,2020,33165.0
Toscana,15,17135.0,16009.0,2020,33144.0
Toscana,16,16743.0,15605.0,2020,32348.0
Toscana,17,16905.0,15684.0,2020,32589.0
Toscana,18,16889.0,15758.0,2020,32647.0
Toscana,19,17340.0,15835.0,2020,33175.0
Toscana,20,17235.0,15268.0,2020,32503.0
Toscana,21,17731.0,15543.0,2020,33274.0
Toscana,22,17448.0,15606.0,2020,33054.0
Toscana,23,17320.0,15760.0,2020,33080.0
Toscana,24,17118.0,15676.0,2020,32794.0
Toscana,25,17037.0,16044.0,2020,33081.0
Toscana,26,17451.0,16201.0,2020,33652.0
Toscana,27,18189.0,17385.0,2020,35574.0
Toscana,28,18135.0,17342.0,2020,35477.0
Toscana,29,19152.0,18102.0,2020,37254.0
Toscana,30,18666.0,18264.0,2020,36930.0
Toscana,31,19390.0,19005.0,2020,38395.0
Toscana,32,18912.0,18661.0,2020,37573.0
Toscana,33,18577.0,19099.0,2020,37676.0
Toscana,34,19522.0,19940.0,2020,39462.0
Toscana,35,19973.0,20153.0,2020,40126.0
Toscana,36,20441.0,20841.0,2020,41282.0
Toscana,37,21207.0,21309.0,2020,42516.0
Toscana,38,21424.0,21687.0,2020,43111.0
Toscana,39,22168.0,22249.0,2020,44417.0
Toscana,40,23061.0,23522.0,2020,46583.0
Toscana,41,24465.0,24939.0,2020,49404.0
Toscana,42,25363.0,25913.0,2020,51276.0
Toscana,43,26414.0,27341.0,2020,53755.0
Toscana,44,27843.0,28727.0,2020,56570.0
Toscana,45,29208.0,30141.0,2020,59349.0
Toscana,46,29231.0,30361.0,2020,59592.0
Toscana,47,29746.0,30349.0,2020,60095.0
Toscana,48,29813.0,30751.0,2020,60564.0
Toscana,49,29638.0,29841.0,2020,59479.0
Toscana,50,30101.0,30964.0,2020,61065.0
Toscana,51,29428.0,30767.0,2020,60195.0
Toscana,52,29534.0,31065.0,2020,60599.0
Toscana,53,30202.0,31158.0,2020,61360.0
Toscana,54,30110.0,31215.0,2020,61325.0
Toscana,55,30251.0,31637.0,2020,61888.0
Toscana,56,28184.0,29584.0,2020,57768.0
Toscana,57,27072.0,28578.0,2020,55650.0
Toscana,58,26242.0,28224.0,2020,54466.0
Toscana,59,25663.0,27131.0,2020,52794.0
Toscana,60,24998.0,26502.0,2020,51500.0
Toscana,61,23537.0,25960.0,2020,49497.0
Toscana,62,23068.0,25271.0,2020,48339.0
Toscana,63,22680.0,24940.0,2020,47620.0
Toscana,64,22025.0,24584.0,2020,46609.0
Toscana,65,21694.0,24355.0,2020,46049.0
Toscana,66,20825.0,22804.0,2020,43629.0
Toscana,67,20375.0,22753.0,2020,43128.0
Toscana,68,20413.0,22423.0,2020,42836.0
Toscana,69,20861.0,23185.0,2020,44046.0
Toscana,70,21550.0,24312.0,2020,45862.0
Toscana,71,22807.0,25819.0,2020,48626.0
Toscana,72,22412.0,25887.0,2020,48299.0
Toscana,73,22404.0,25872.0,2020,48276.0
Toscana,74,17084.0,20090.0,2020,37174.0
Toscana,75,16846.0,19941.0,2020,36787.0
Toscana,76,16537.0,19990.0,2020,36527.0
Toscana,77,15516.0,19100.0,2020,34616.0
Toscana,78,15500.0,19734.0,2020,35234.0
Toscana,79,16774.0,21976.0,2020,38750.0
Toscana,80,15997.0,20744.0,2020,36741.0
Toscana,81,15497.0,20502.0,2020,35999.0
Toscana,82,13212.0,18356.0,2020,31568.0
Toscana,83,11504.0,16303.0,2020,27807.0
Toscana,84,11080.0,16241.0,2020,27321.0
Toscana,85,9554.0,14598.0,2020,24152.0
Toscana,86,8429.0,13481.0,2020,21910.0
Toscana,87,7161.0,12378.0,2020,19539.0
Toscana,88,6403.0,11618.0,2020,18021.0
Toscana,89,5604.0,10991.0,2020,16595.0
Toscana,90,4311.0,9063.0,2020,13374.0
Toscana,91,3436.0,7894.0,2020,11330.0
Toscana,92,2777.0,6558.0,2020,9335.0
Toscana,93,2073.0,5308.0,2020,7381.0
Toscana,94,1389.0,4289.0,2020,5678.0
Toscana,95,1065.0,3354.0,2020,4419.0
Toscana,96,746.0,2558.0,2020,3304.0
Toscana,97,450.0,1842.0,2020,2292.0
Toscana,98,331.0,1350.0,2020,1681.0
Toscana,99,190.0,908.0,2020,1098.0
Toscana,100,169.0,875.0,2020,1044.0
Toscana,Totale,1784318.0,1908237.0,2020,3692555.0
Umbria,0,2766.0,2722.0,2020,5488.0
Umbria,1,2954.0,2745.0,2020,5699.0
Umbria,2,3071.0,2921.0,2020,5992.0
Umbria,3,3259.0,3122.0,2020,6381.0
Umbria,4,3295.0,3133.0,2020,6428.0
Umbria,5,3500.0,3345.0,2020,6845.0
Umbria,6,3682.0,3436.0,2020,7118.0
Umbria,7,3751.0,3710.0,2020,7461.0
Umbria,8,3836.0,3716.0,2020,7552.0
Umbria,9,4002.0,3740.0,2020,7742.0
Umbria,10,3991.0,3715.0,2020,7706.0
Umbria,11,4128.0,4004.0,2020,8132.0
Umbria,12,4182.0,3915.0,2020,8097.0
Umbria,13,4136.0,3846.0,2020,7982.0
Umbria,14,4114.0,3834.0,2020,7948.0
Umbria,15,3957.0,3786.0,2020,7743.0
Umbria,16,4016.0,3640.0,2020,7656.0
Umbria,17,3906.0,3762.0,2020,7668.0
Umbria,18,3949.0,3651.0,2020,7600.0
Umbria,19,3995.0,3830.0,2020,7825.0
Umbria,20,4201.0,3617.0,2020,7818.0
Umbria,21,4242.0,3671.0,2020,7913.0
Umbria,22,4160.0,3708.0,2020,7868.0
Umbria,23,4168.0,3748.0,2020,7916.0
Umbria,24,4131.0,3776.0,2020,7907.0
Umbria,25,4097.0,3851.0,2020,7948.0
Umbria,26,4225.0,3943.0,2020,8168.0
Umbria,27,4458.0,4146.0,2020,8604.0
Umbria,28,4387.0,4097.0,2020,8484.0
Umbria,29,4433.0,4289.0,2020,8722.0
Umbria,30,4525.0,4393.0,2020,8918.0
Umbria,31,4694.0,4642.0,2020,9336.0
Umbria,32,4567.0,4460.0,2020,9027.0
Umbria,33,4562.0,4628.0,2020,9190.0
Umbria,34,4672.0,4824.0,2020,9496.0
Umbria,35,4747.0,4872.0,2020,9619.0
Umbria,36,5139.0,5141.0,2020,10280.0
Umbria,37,5147.0,5067.0,2020,10214.0
Umbria,38,5214.0,5277.0,2020,10491.0
Umbria,39,5304.0,5288.0,2020,10592.0
Umbria,40,5478.0,5536.0,2020,11014.0
Umbria,41,5680.0,5925.0,2020,11605.0
Umbria,42,5992.0,6095.0,2020,12087.0
Umbria,43,6180.0,6244.0,2020,12424.0
Umbria,44,6353.0,6688.0,2020,13041.0
Umbria,45,6645.0,6999.0,2020,13644.0
Umbria,46,6685.0,6876.0,2020,13561.0
Umbria,47,6505.0,6895.0,2020,13400.0
Umbria,48,6637.0,6996.0,2020,13633.0
Umbria,49,6637.0,6786.0,2020,13423.0
Umbria,50,6745.0,7115.0,2020,13860.0
Umbria,51,6657.0,7155.0,2020,13812.0
Umbria,52,6572.0,7081.0,2020,13653.0
Umbria,53,6658.0,7002.0,2020,13660.0
Umbria,54,6921.0,7249.0,2020,14170.0
Umbria,55,6930.0,7300.0,2020,14230.0
Umbria,56,6338.0,6992.0,2020,13330.0
Umbria,57,6224.0,6731.0,2020,12955.0
Umbria,58,6279.0,6628.0,2020,12907.0
Umbria,59,6102.0,6620.0,2020,12722.0
Umbria,60,5852.0,6336.0,2020,12188.0
Umbria,61,5528.0,6005.0,2020,11533.0
Umbria,62,5385.0,5900.0,2020,11285.0
Umbria,63,5490.0,5979.0,2020,11469.0
Umbria,64,5331.0,5844.0,2020,11175.0
Umbria,65,5128.0,5758.0,2020,10886.0
Umbria,66,5110.0,5579.0,2020,10689.0
Umbria,67,4755.0,5327.0,2020,10082.0
Umbria,68,5009.0,5547.0,2020,10556.0
Umbria,69,5088.0,5588.0,2020,10676.0
Umbria,70,5239.0,5766.0,2020,11005.0
Umbria,71,5584.0,6129.0,2020,11713.0
Umbria,72,5105.0,5660.0,2020,10765.0
Umbria,73,4811.0,5477.0,2020,10288.0
Umbria,74,3796.0,4411.0,2020,8207.0
Umbria,75,3918.0,4738.0,2020,8656.0
Umbria,76,4168.0,4811.0,2020,8979.0
Umbria,77,3771.0,4424.0,2020,8195.0
Umbria,78,3728.0,4471.0,2020,8199.0
Umbria,79,4061.0,4936.0,2020,8997.0
Umbria,80,3730.0,4929.0,2020,8659.0
Umbria,81,3751.0,4868.0,2020,8619.0
Umbria,82,3038.0,4405.0,2020,7443.0
Umbria,83,2695.0,3957.0,2020,6652.0
Umbria,84,2613.0,3867.0,2020,6480.0
Umbria,85,2366.0,3672.0,2020,6038.0
Umbria,86,2158.0,3373.0,2020,5531.0
Umbria,87,1780.0,2936.0,2020,4716.0
Umbria,88,1633.0,2917.0,2020,4550.0
Umbria,89,1380.0,2710.0,2020,4090.0
Umbria,90,986.0,2250.0,2020,3236.0
Umbria,91,812.0,1922.0,2020,2734.0
Umbria,92,650.0,1728.0,2020,2378.0
Umbria,93,517.0,1339.0,2020,1856.0
Umbria,94,375.0,1135.0,2020,1510.0
Umbria,95,302.0,848.0,2020,1150.0
Umbria,96,176.0,607.0,2020,783.0
Umbria,97,119.0,423.0,2020,542.0
Umbria,98,91.0,332.0,2020,423.0
Umbria,99,49.0,200.0,2020,249.0
Umbria,100,35.0,243.0,2020,278.0
Umbria,Totale,419894.0,450271.0,2020,870165.0
Marche,0,5006.0,4576.0,2020,9582.0
Marche,1,5217.0,4923.0,2020,10140.0
Marche,2,5485.0,5221.0,2020,10706.0
Marche,3,5909.0,5493.0,2020,11402.0
Marche,4,6022.0,5839.0,2020,11861.0
Marche,5,6275.0,5904.0,2020,12179.0
Marche,6,6515.0,5975.0,2020,12490.0
Marche,7,6594.0,6224.0,2020,12818.0
Marche,8,6826.0,6626.0,2020,13452.0
Marche,9,7042.0,6590.0,2020,13632.0
Marche,10,7218.0,6782.0,2020,14000.0
Marche,11,7267.0,6807.0,2020,14074.0
Marche,12,7158.0,6709.0,2020,13867.0
Marche,13,7050.0,6645.0,2020,13695.0
Marche,14,7003.0,6663.0,2020,13666.0
Marche,15,7126.0,6574.0,2020,13700.0
Marche,16,6944.0,6608.0,2020,13552.0
Marche,17,7113.0,6569.0,2020,13682.0
Marche,18,7064.0,6594.0,2020,13658.0
Marche,19,7551.0,6723.0,2020,14274.0
Marche,20,7463.0,6772.0,2020,14235.0
Marche,21,7785.0,6790.0,2020,14575.0
Marche,22,7587.0,6826.0,2020,14413.0
Marche,23,7510.0,6763.0,2020,14273.0
Marche,24,7561.0,6867.0,2020,14428.0
Marche,25,7436.0,6872.0,2020,14308.0
Marche,26,7500.0,7100.0,2020,14600.0
Marche,27,7842.0,7359.0,2020,15201.0
Marche,28,7863.0,7292.0,2020,15155.0
Marche,29,7957.0,7594.0,2020,15551.0
Marche,30,7791.0,7576.0,2020,15367.0
Marche,31,7883.0,7842.0,2020,15725.0
Marche,32,7799.0,7574.0,2020,15373.0
Marche,33,8082.0,7849.0,2020,15931.0
Marche,34,8080.0,8210.0,2020,16290.0
Marche,35,8255.0,8226.0,2020,16481.0
Marche,36,8441.0,8565.0,2020,17006.0
Marche,37,8901.0,8844.0,2020,17745.0
Marche,38,8946.0,8898.0,2020,17844.0
Marche,39,9351.0,9274.0,2020,18625.0
Marche,40,9639.0,9811.0,2020,19450.0
Marche,41,10365.0,10334.0,2020,20699.0
Marche,42,10522.0,10772.0,2020,21294.0
Marche,43,11013.0,10891.0,2020,21904.0
Marche,44,11401.0,11620.0,2020,23021.0
Marche,45,11843.0,11742.0,2020,23585.0
Marche,46,11534.0,11713.0,2020,23247.0
Marche,47,11724.0,11770.0,2020,23494.0
Marche,48,11975.0,12287.0,2020,24262.0
Marche,49,11693.0,11801.0,2020,23494.0
Marche,50,11901.0,12487.0,2020,24388.0
Marche,51,11883.0,12167.0,2020,24050.0
Marche,52,11824.0,12301.0,2020,24125.0
Marche,53,11961.0,12323.0,2020,24284.0
Marche,54,11996.0,12164.0,2020,24160.0
Marche,55,12293.0,12560.0,2020,24853.0
Marche,56,11506.0,12011.0,2020,23517.0
Marche,57,11153.0,11233.0,2020,22386.0
Marche,58,11148.0,11488.0,2020,22636.0
Marche,59,10594.0,11201.0,2020,21795.0
Marche,60,10190.0,11010.0,2020,21200.0
Marche,61,9931.0,10631.0,2020,20562.0
Marche,62,9629.0,10454.0,2020,20083.0
Marche,63,9599.0,10599.0,2020,20198.0
Marche,64,9217.0,10186.0,2020,19403.0
Marche,65,9002.0,9694.0,2020,18696.0
Marche,66,8665.0,9485.0,2020,18150.0
Marche,67,8727.0,9333.0,2020,18060.0
Marche,68,8726.0,9554.0,2020,18280.0
Marche,69,8882.0,9652.0,2020,18534.0
Marche,70,8508.0,9345.0,2020,17853.0
Marche,71,8648.0,9660.0,2020,18308.0
Marche,72,8361.0,9228.0,2020,17589.0
Marche,73,8168.0,9377.0,2020,17545.0
Marche,74,6773.0,7637.0,2020,14410.0
Marche,75,6364.0,7467.0,2020,13831.0
Marche,76,6639.0,7785.0,2020,14424.0
Marche,77,6113.0,7422.0,2020,13535.0
Marche,78,5928.0,7486.0,2020,13414.0
Marche,79,6578.0,8454.0,2020,15032.0
Marche,80,6599.0,8467.0,2020,15066.0
Marche,81,6321.0,8443.0,2020,14764.0
Marche,82,5555.0,7368.0,2020,12923.0
Marche,83,4680.0,6841.0,2020,11521.0
Marche,84,4596.0,6890.0,2020,11486.0
Marche,85,4136.0,6214.0,2020,10350.0
Marche,86,3549.0,5772.0,2020,9321.0
Marche,87,2919.0,5009.0,2020,7928.0
Marche,88,2756.0,4923.0,2020,7679.0
Marche,89,2314.0,4473.0,2020,6787.0
Marche,90,1814.0,3572.0,2020,5386.0
Marche,91,1460.0,3203.0,2020,4663.0
Marche,92,1197.0,2854.0,2020,4051.0
Marche,93,849.0,2366.0,2020,3215.0
Marche,94,672.0,1884.0,2020,2556.0
Marche,95,418.0,1364.0,2020,1782.0
Marche,96,329.0,1039.0,2020,1368.0
Marche,97,202.0,733.0,2020,935.0
Marche,98,128.0,563.0,2020,691.0
Marche,99,94.0,352.0,2020,446.0
Marche,100,69.0,378.0,2020,447.0
Marche,Totale,735691.0,776981.0,2020,1512672.0
Lazio,0,19697.0,18465.0,2020,38162.0
Lazio,1,21734.0,20595.0,2020,42329.0
Lazio,2,22860.0,21447.0,2020,44307.0
Lazio,3,23953.0,22637.0,2020,46590.0
Lazio,4,24335.0,23446.0,2020,47781.0
Lazio,5,25615.0,23898.0,2020,49513.0
Lazio,6,25957.0,24493.0,2020,50450.0
Lazio,7,27324.0,26009.0,2020,53333.0
Lazio,8,27399.0,25896.0,2020,53295.0
Lazio,9,28116.0,26493.0,2020,54609.0
Lazio,10,28338.0,26442.0,2020,54780.0
Lazio,11,28167.0,27037.0,2020,55204.0
Lazio,12,28661.0,26769.0,2020,55430.0
Lazio,13,28261.0,26734.0,2020,54995.0
Lazio,14,27449.0,25800.0,2020,53249.0
Lazio,15,27681.0,26000.0,2020,53681.0
Lazio,16,27280.0,25891.0,2020,53171.0
Lazio,17,27007.0,25264.0,2020,52271.0
Lazio,18,27298.0,25435.0,2020,52733.0
Lazio,19,28048.0,25741.0,2020,53789.0
Lazio,20,27906.0,25341.0,2020,53247.0
Lazio,21,28682.0,25641.0,2020,54323.0
Lazio,22,28497.0,25708.0,2020,54205.0
Lazio,23,28798.0,25964.0,2020,54762.0
Lazio,24,29169.0,26174.0,2020,55343.0
Lazio,25,29051.0,26776.0,2020,55827.0
Lazio,26,29243.0,27614.0,2020,56857.0
Lazio,27,30659.0,28907.0,2020,59566.0
Lazio,28,30248.0,28913.0,2020,59161.0
Lazio,29,31252.0,29918.0,2020,61170.0
Lazio,30,31230.0,30280.0,2020,61510.0
Lazio,31,32167.0,31538.0,2020,63705.0
Lazio,32,31687.0,31721.0,2020,63408.0
Lazio,33,32079.0,31744.0,2020,63823.0
Lazio,34,33454.0,33416.0,2020,66870.0
Lazio,35,34722.0,34341.0,2020,69063.0
Lazio,36,35567.0,35038.0,2020,70605.0
Lazio,37,36661.0,36860.0,2020,73521.0
Lazio,38,36780.0,37582.0,2020,74362.0
Lazio,39,37605.0,38236.0,2020,75841.0
Lazio,40,38659.0,39579.0,2020,78238.0
Lazio,41,40660.0,41853.0,2020,82513.0
Lazio,42,41497.0,42593.0,2020,84090.0
Lazio,43,42878.0,44780.0,2020,87658.0
Lazio,44,45028.0,47066.0,2020,92094.0
Lazio,45,46529.0,49270.0,2020,95799.0
Lazio,46,46614.0,49180.0,2020,95794.0
Lazio,47,46966.0,49806.0,2020,96772.0
Lazio,48,46873.0,49854.0,2020,96727.0
Lazio,49,47022.0,49621.0,2020,96643.0
Lazio,50,47322.0,50650.0,2020,97972.0
Lazio,51,46692.0,50158.0,2020,96850.0
Lazio,52,46501.0,50400.0,2020,96901.0
Lazio,53,47286.0,49996.0,2020,97282.0
Lazio,54,47144.0,49959.0,2020,97103.0
Lazio,55,47563.0,51032.0,2020,98595.0
Lazio,56,44355.0,47906.0,2020,92261.0
Lazio,57,42379.0,45800.0,2020,88179.0
Lazio,58,41033.0,44646.0,2020,85679.0
Lazio,59,39124.0,42884.0,2020,82008.0
Lazio,60,37695.0,41593.0,2020,79288.0
Lazio,61,35867.0,39947.0,2020,75814.0
Lazio,62,35154.0,39131.0,2020,74285.0
Lazio,63,34400.0,38022.0,2020,72422.0
Lazio,64,33567.0,37448.0,2020,71015.0
Lazio,65,32588.0,36866.0,2020,69454.0
Lazio,66,30600.0,34675.0,2020,65275.0
Lazio,67,29698.0,33710.0,2020,63408.0
Lazio,68,29014.0,33364.0,2020,62378.0
Lazio,69,29674.0,34076.0,2020,63750.0
Lazio,70,29442.0,33961.0,2020,63403.0
Lazio,71,30489.0,35866.0,2020,66355.0
Lazio,72,30137.0,35125.0,2020,65262.0
Lazio,73,28556.0,34408.0,2020,62964.0
Lazio,74,21868.0,26876.0,2020,48744.0
Lazio,75,21717.0,26670.0,2020,48387.0
Lazio,76,21986.0,28028.0,2020,50014.0
Lazio,77,20998.0,26930.0,2020,47928.0
Lazio,78,20768.0,26866.0,2020,47634.0
Lazio,79,21934.0,29382.0,2020,51316.0
Lazio,80,20627.0,27777.0,2020,48404.0
Lazio,81,18948.0,26319.0,2020,45267.0
Lazio,82,16628.0,23840.0,2020,40468.0
Lazio,83,14674.0,21739.0,2020,36413.0
Lazio,84,13955.0,20969.0,2020,34924.0
Lazio,85,12048.0,19514.0,2020,31562.0
Lazio,86,10448.0,17386.0,2020,27834.0
Lazio,87,8811.0,15478.0,2020,24289.0
Lazio,88,7801.0,14192.0,2020,21993.0
Lazio,89,6742.0,13482.0,2020,20224.0
Lazio,90,5173.0,10558.0,2020,15731.0
Lazio,91,3921.0,8962.0,2020,12883.0
Lazio,92,3019.0,7417.0,2020,10436.0
Lazio,93,2323.0,6106.0,2020,8429.0
Lazio,94,1601.0,4630.0,2020,6231.0
Lazio,95,1216.0,3658.0,2020,4874.0
Lazio,96,852.0,2766.0,2020,3618.0
Lazio,97,598.0,1968.0,2020,2566.0
Lazio,98,369.0,1443.0,2020,1812.0
Lazio,99,272.0,958.0,2020,1230.0
Lazio,100,241.0,1176.0,2020,1417.0
Lazio,Totale,2779181.0,2976519.0,2020,5755700.0
Abruzzo,0,4264.0,4108.0,2020,8372.0
Abruzzo,1,4494.0,4316.0,2020,8810.0
Abruzzo,2,4874.0,4562.0,2020,9436.0
Abruzzo,3,5138.0,4833.0,2020,9971.0
Abruzzo,4,5211.0,4874.0,2020,10085.0
Abruzzo,5,5296.0,5004.0,2020,10300.0
Abruzzo,6,5381.0,5072.0,2020,10453.0
Abruzzo,7,5623.0,5343.0,2020,10966.0
Abruzzo,8,5802.0,5313.0,2020,11115.0
Abruzzo,9,5882.0,5597.0,2020,11479.0
Abruzzo,10,5821.0,5465.0,2020,11286.0
Abruzzo,11,6015.0,5676.0,2020,11691.0
Abruzzo,12,5863.0,5624.0,2020,11487.0
Abruzzo,13,5870.0,5494.0,2020,11364.0
Abruzzo,14,5854.0,5634.0,2020,11488.0
Abruzzo,15,6035.0,5559.0,2020,11594.0
Abruzzo,16,5970.0,5543.0,2020,11513.0
Abruzzo,17,5930.0,5456.0,2020,11386.0
Abruzzo,18,6090.0,5703.0,2020,11793.0
Abruzzo,19,6412.0,5647.0,2020,12059.0
Abruzzo,20,6309.0,5716.0,2020,12025.0
Abruzzo,21,6476.0,5943.0,2020,12419.0
Abruzzo,22,6542.0,5819.0,2020,12361.0
Abruzzo,23,6481.0,6119.0,2020,12600.0
Abruzzo,24,6548.0,5931.0,2020,12479.0
Abruzzo,25,6683.0,6309.0,2020,12992.0
Abruzzo,26,6955.0,6419.0,2020,13374.0
Abruzzo,27,7181.0,6747.0,2020,13928.0
Abruzzo,28,7106.0,6736.0,2020,13842.0
Abruzzo,29,7191.0,6872.0,2020,14063.0
Abruzzo,30,7329.0,6807.0,2020,14136.0
Abruzzo,31,7341.0,7068.0,2020,14409.0
Abruzzo,32,7138.0,7018.0,2020,14156.0
Abruzzo,33,7386.0,7161.0,2020,14547.0
Abruzzo,34,7551.0,7396.0,2020,14947.0
Abruzzo,35,7760.0,7472.0,2020,15232.0
Abruzzo,36,7739.0,7490.0,2020,15229.0
Abruzzo,37,7955.0,7976.0,2020,15931.0
Abruzzo,38,7966.0,7869.0,2020,15835.0
Abruzzo,39,8307.0,7984.0,2020,16291.0
Abruzzo,40,8565.0,8365.0,2020,16930.0
Abruzzo,41,8940.0,8654.0,2020,17594.0
Abruzzo,42,8999.0,8739.0,2020,17738.0
Abruzzo,43,9308.0,9185.0,2020,18493.0
Abruzzo,44,9363.0,9642.0,2020,19005.0
Abruzzo,45,9987.0,9832.0,2020,19819.0
Abruzzo,46,9647.0,9928.0,2020,19575.0
Abruzzo,47,9982.0,10212.0,2020,20194.0
Abruzzo,48,10044.0,10514.0,2020,20558.0
Abruzzo,49,9910.0,10244.0,2020,20154.0
Abruzzo,50,10418.0,10636.0,2020,21054.0
Abruzzo,51,10332.0,10540.0,2020,20872.0
Abruzzo,52,10322.0,10738.0,2020,21060.0
Abruzzo,53,10447.0,10798.0,2020,21245.0
Abruzzo,54,10452.0,10820.0,2020,21272.0
Abruzzo,55,10636.0,10742.0,2020,21378.0
Abruzzo,56,9842.0,10290.0,2020,20132.0
Abruzzo,57,9470.0,9923.0,2020,19393.0
Abruzzo,58,9113.0,9926.0,2020,19039.0
Abruzzo,59,9016.0,9696.0,2020,18712.0
Abruzzo,60,8844.0,9577.0,2020,18421.0
Abruzzo,61,8552.0,9181.0,2020,17733.0
Abruzzo,62,8422.0,9050.0,2020,17472.0
Abruzzo,63,8422.0,8756.0,2020,17178.0
Abruzzo,64,8228.0,8960.0,2020,17188.0
Abruzzo,65,8038.0,8758.0,2020,16796.0
Abruzzo,66,7535.0,8193.0,2020,15728.0
Abruzzo,67,7479.0,8120.0,2020,15599.0
Abruzzo,68,7350.0,8246.0,2020,15596.0
Abruzzo,69,7675.0,8319.0,2020,15994.0
Abruzzo,70,7731.0,8502.0,2020,16233.0
Abruzzo,71,7694.0,8655.0,2020,16349.0
Abruzzo,72,7341.0,8062.0,2020,15403.0
Abruzzo,73,7077.0,7764.0,2020,14841.0
Abruzzo,74,5110.0,5956.0,2020,11066.0
Abruzzo,75,5539.0,6253.0,2020,11792.0
Abruzzo,76,5149.0,6137.0,2020,11286.0
Abruzzo,77,4934.0,5893.0,2020,10827.0
Abruzzo,78,4887.0,5849.0,2020,10736.0
Abruzzo,79,5348.0,6691.0,2020,12039.0
Abruzzo,80,5207.0,6695.0,2020,11902.0
Abruzzo,81,4610.0,5988.0,2020,10598.0
Abruzzo,82,4385.0,5825.0,2020,10210.0
Abruzzo,83,3841.0,5392.0,2020,9233.0
Abruzzo,84,3612.0,5273.0,2020,8885.0
Abruzzo,85,3151.0,4900.0,2020,8051.0
Abruzzo,86,2902.0,4774.0,2020,7676.0
Abruzzo,87,2414.0,4021.0,2020,6435.0
Abruzzo,88,2118.0,3813.0,2020,5931.0
Abruzzo,89,1941.0,3626.0,2020,5567.0
Abruzzo,90,1435.0,2904.0,2020,4339.0
Abruzzo,91,1114.0,2464.0,2020,3578.0
Abruzzo,92,932.0,2157.0,2020,3089.0
Abruzzo,93,649.0,1677.0,2020,2326.0
Abruzzo,94,491.0,1298.0,2020,1789.0
Abruzzo,95,352.0,1044.0,2020,1396.0
Abruzzo,96,230.0,772.0,2020,1002.0
Abruzzo,97,166.0,579.0,2020,745.0
Abruzzo,98,140.0,386.0,2020,526.0
Abruzzo,99,73.0,259.0,2020,332.0
Abruzzo,100,63.0,330.0,2020,393.0
Abruzzo,Totale,631743.0,662198.0,2020,1293941.0
Molise,0,983.0,905.0,2020,1888.0
Molise,1,949.0,914.0,2020,1863.0
Molise,2,1083.0,996.0,2020,2079.0
Molise,3,1029.0,997.0,2020,2026.0
Molise,4,1096.0,1019.0,2020,2115.0
Molise,5,1153.0,1000.0,2020,2153.0
Molise,6,1119.0,1073.0,2020,2192.0
Molise,7,1175.0,1070.0,2020,2245.0
Molise,8,1164.0,1152.0,2020,2316.0
Molise,9,1283.0,1161.0,2020,2444.0
Molise,10,1183.0,1088.0,2020,2271.0
Molise,11,1304.0,1167.0,2020,2471.0
Molise,12,1271.0,1210.0,2020,2481.0
Molise,13,1268.0,1211.0,2020,2479.0
Molise,14,1336.0,1212.0,2020,2548.0
Molise,15,1371.0,1195.0,2020,2566.0
Molise,16,1358.0,1245.0,2020,2603.0
Molise,17,1351.0,1321.0,2020,2672.0
Molise,18,1426.0,1314.0,2020,2740.0
Molise,19,1484.0,1383.0,2020,2867.0
Molise,20,1588.0,1377.0,2020,2965.0
Molise,21,1722.0,1420.0,2020,3142.0
Molise,22,1666.0,1410.0,2020,3076.0
Molise,23,1601.0,1476.0,2020,3077.0
Molise,24,1630.0,1510.0,2020,3140.0
Molise,25,1735.0,1505.0,2020,3240.0
Molise,26,1737.0,1580.0,2020,3317.0
Molise,27,1779.0,1648.0,2020,3427.0
Molise,28,1833.0,1563.0,2020,3396.0
Molise,29,1738.0,1604.0,2020,3342.0
Molise,30,1742.0,1607.0,2020,3349.0
Molise,31,1767.0,1619.0,2020,3386.0
Molise,32,1833.0,1595.0,2020,3428.0
Molise,33,1762.0,1578.0,2020,3340.0
Molise,34,1768.0,1670.0,2020,3438.0
Molise,35,1779.0,1648.0,2020,3427.0
Molise,36,1826.0,1653.0,2020,3479.0
Molise,37,1823.0,1760.0,2020,3583.0
Molise,38,1866.0,1779.0,2020,3645.0
Molise,39,1822.0,1764.0,2020,3586.0
Molise,40,1924.0,1873.0,2020,3797.0
Molise,41,1971.0,1931.0,2020,3902.0
Molise,42,1989.0,1974.0,2020,3963.0
Molise,43,2146.0,1920.0,2020,4066.0
Molise,44,2202.0,2122.0,2020,4324.0
Molise,45,2276.0,2223.0,2020,4499.0
Molise,46,2143.0,2197.0,2020,4340.0
Molise,47,2211.0,2246.0,2020,4457.0
Molise,48,2210.0,2218.0,2020,4428.0
Molise,49,2213.0,2225.0,2020,4438.0
Molise,50,2299.0,2384.0,2020,4683.0
Molise,51,2316.0,2379.0,2020,4695.0
Molise,52,2344.0,2477.0,2020,4821.0
Molise,53,2378.0,2508.0,2020,4886.0
Molise,54,2419.0,2465.0,2020,4884.0
Molise,55,2530.0,2523.0,2020,5053.0
Molise,56,2372.0,2322.0,2020,4694.0
Molise,57,2249.0,2317.0,2020,4566.0
Molise,58,2291.0,2233.0,2020,4524.0
Molise,59,2283.0,2354.0,2020,4637.0
Molise,60,2168.0,2276.0,2020,4444.0
Molise,61,1989.0,2215.0,2020,4204.0
Molise,62,2070.0,2134.0,2020,4204.0
Molise,63,2101.0,2096.0,2020,4197.0
Molise,64,2025.0,2096.0,2020,4121.0
Molise,65,2003.0,2155.0,2020,4158.0
Molise,66,1849.0,1937.0,2020,3786.0
Molise,67,1893.0,2019.0,2020,3912.0
Molise,68,1748.0,1857.0,2020,3605.0
Molise,69,1893.0,1985.0,2020,3878.0
Molise,70,1975.0,2055.0,2020,4030.0
Molise,71,1903.0,2002.0,2020,3905.0
Molise,72,1782.0,1926.0,2020,3708.0
Molise,73,1678.0,1730.0,2020,3408.0
Molise,74,1246.0,1395.0,2020,2641.0
Molise,75,1192.0,1379.0,2020,2571.0
Molise,76,1105.0,1290.0,2020,2395.0
Molise,77,1074.0,1223.0,2020,2297.0
Molise,78,1111.0,1412.0,2020,2523.0
Molise,79,1235.0,1578.0,2020,2813.0
Molise,80,1242.0,1691.0,2020,2933.0
Molise,81,1068.0,1374.0,2020,2442.0
Molise,82,999.0,1407.0,2020,2406.0
Molise,83,926.0,1425.0,2020,2351.0
Molise,84,877.0,1353.0,2020,2230.0
Molise,85,833.0,1305.0,2020,2138.0
Molise,86,724.0,1215.0,2020,1939.0
Molise,87,596.0,1054.0,2020,1650.0
Molise,88,538.0,940.0,2020,1478.0
Molise,89,486.0,985.0,2020,1471.0
Molise,90,383.0,757.0,2020,1140.0
Molise,91,270.0,641.0,2020,911.0
Molise,92,219.0,597.0,2020,816.0
Molise,93,171.0,469.0,2020,640.0
Molise,94,113.0,343.0,2020,456.0
Molise,95,99.0,294.0,2020,393.0
Molise,96,67.0,202.0,2020,269.0
Molise,97,48.0,171.0,2020,219.0
Molise,98,43.0,119.0,2020,162.0
Molise,99,18.0,79.0,2020,97.0
Molise,100,24.0,92.0,2020,116.0
Molise,Totale,147953.0,152563.0,2020,300516.0
Campania,0,23548.0,22462.0,2020,46010.0
Campania,1,24392.0,22746.0,2020,47138.0
Campania,2,25245.0,24101.0,2020,49346.0
Campania,3,25422.0,24056.0,2020,49478.0
Campania,4,25755.0,24455.0,2020,50210.0
Campania,5,26369.0,24576.0,2020,50945.0
Campania,6,26543.0,25463.0,2020,52006.0
Campania,7,28135.0,26238.0,2020,54373.0
Campania,8,28661.0,26870.0,2020,55531.0
Campania,9,29648.0,27591.0,2020,57239.0
Campania,10,30083.0,28701.0,2020,58784.0
Campania,11,30405.0,29066.0,2020,59471.0
Campania,12,31065.0,29669.0,2020,60734.0
Campania,13,31568.0,29537.0,2020,61105.0
Campania,14,31716.0,29988.0,2020,61704.0
Campania,15,32881.0,30912.0,2020,63793.0
Campania,16,32944.0,31576.0,2020,64520.0
Campania,17,32907.0,31204.0,2020,64111.0
Campania,18,34083.0,31736.0,2020,65819.0
Campania,19,34789.0,32455.0,2020,67244.0
Campania,20,35099.0,32426.0,2020,67525.0
Campania,21,35426.0,32326.0,2020,67752.0
Campania,22,35245.0,32389.0,2020,67634.0
Campania,23,35249.0,32905.0,2020,68154.0
Campania,24,34679.0,33423.0,2020,68102.0
Campania,25,35176.0,33582.0,2020,68758.0
Campania,26,35466.0,34362.0,2020,69828.0
Campania,27,36800.0,35854.0,2020,72654.0
Campania,28,36232.0,35588.0,2020,71820.0
Campania,29,35958.0,35294.0,2020,71252.0
Campania,30,35567.0,35215.0,2020,70782.0
Campania,31,35879.0,35798.0,2020,71677.0
Campania,32,35137.0,34254.0,2020,69391.0
Campania,33,34643.0,34189.0,2020,68832.0
Campania,34,35725.0,34665.0,2020,70390.0
Campania,35,35596.0,35841.0,2020,71437.0
Campania,36,35980.0,36025.0,2020,72005.0
Campania,37,37127.0,36689.0,2020,73816.0
Campania,38,36239.0,36702.0,2020,72941.0
Campania,39,37055.0,36932.0,2020,73987.0
Campania,40,37549.0,38091.0,2020,75640.0
Campania,41,38483.0,39232.0,2020,77715.0
Campania,42,39267.0,39978.0,2020,79245.0
Campania,43,40615.0,41593.0,2020,82208.0
Campania,44,42193.0,42816.0,2020,85009.0
Campania,45,43116.0,44827.0,2020,87943.0
Campania,46,42280.0,44381.0,2020,86661.0
Campania,47,42565.0,44669.0,2020,87234.0
Campania,48,42476.0,45209.0,2020,87685.0
Campania,49,41719.0,44538.0,2020,86257.0
Campania,50,43091.0,45468.0,2020,88559.0
Campania,51,42853.0,45637.0,2020,88490.0
Campania,52,43220.0,46290.0,2020,89510.0
Campania,53,43598.0,46445.0,2020,90043.0
Campania,54,43588.0,46343.0,2020,89931.0
Campania,55,44388.0,47363.0,2020,91751.0
Campania,56,41300.0,44681.0,2020,85981.0
Campania,57,40139.0,43762.0,2020,83901.0
Campania,58,39222.0,42815.0,2020,82037.0
Campania,59,37444.0,41037.0,2020,78481.0
Campania,60,37047.0,40129.0,2020,77176.0
Campania,61,34939.0,38127.0,2020,73066.0
Campania,62,34478.0,37499.0,2020,71977.0
Campania,63,32639.0,35943.0,2020,68582.0
Campania,64,33276.0,35853.0,2020,69129.0
Campania,65,32405.0,35734.0,2020,68139.0
Campania,66,29845.0,32447.0,2020,62292.0
Campania,67,28725.0,31315.0,2020,60040.0
Campania,68,28700.0,31173.0,2020,59873.0
Campania,69,28825.0,31768.0,2020,60593.0
Campania,70,28408.0,31781.0,2020,60189.0
Campania,71,28798.0,32349.0,2020,61147.0
Campania,72,27315.0,31061.0,2020,58376.0
Campania,73,27197.0,31071.0,2020,58268.0
Campania,74,21796.0,25201.0,2020,46997.0
Campania,75,18119.0,21575.0,2020,39694.0
Campania,76,18807.0,23506.0,2020,42313.0
Campania,77,17589.0,22110.0,2020,39699.0
Campania,78,16132.0,21335.0,2020,37467.0
Campania,79,17270.0,22960.0,2020,40230.0
Campania,80,16138.0,22169.0,2020,38307.0
Campania,81,14162.0,20119.0,2020,34281.0
Campania,82,12837.0,18623.0,2020,31460.0
Campania,83,10891.0,17016.0,2020,27907.0
Campania,84,10401.0,16460.0,2020,26861.0
Campania,85,8873.0,14726.0,2020,23599.0
Campania,86,8103.0,13878.0,2020,21981.0
Campania,87,6918.0,12271.0,2020,19189.0
Campania,88,5743.0,10959.0,2020,16702.0
Campania,89,4870.0,10116.0,2020,14986.0
Campania,90,3740.0,7979.0,2020,11719.0
Campania,91,2873.0,6756.0,2020,9629.0
Campania,92,2150.0,5346.0,2020,7496.0
Campania,93,1613.0,4141.0,2020,5754.0
Campania,94,1095.0,3281.0,2020,4376.0
Campania,95,785.0,2409.0,2020,3194.0
Campania,96,557.0,1809.0,2020,2366.0
Campania,97,395.0,1275.0,2020,1670.0
Campania,98,237.0,912.0,2020,1149.0
Campania,99,183.0,600.0,2020,783.0
Campania,100,199.0,709.0,2020,908.0
Campania,Totale,2784616.0,2927527.0,2020,5712143.0
Puglia,0,13955.0,13171.0,2020,27126.0
Puglia,1,14770.0,13646.0,2020,28416.0
Puglia,2,15104.0,14543.0,2020,29647.0
Puglia,3,15745.0,14852.0,2020,30597.0
Puglia,4,15835.0,15136.0,2020,30971.0
Puglia,5,16773.0,15645.0,2020,32418.0
Puglia,6,17002.0,16059.0,2020,33061.0
Puglia,7,17709.0,16568.0,2020,34277.0
Puglia,8,18212.0,17171.0,2020,35383.0
Puglia,9,18776.0,17780.0,2020,36556.0
Puglia,10,19033.0,17922.0,2020,36955.0
Puglia,11,19306.0,18167.0,2020,37473.0
Puglia,12,19591.0,18324.0,2020,37915.0
Puglia,13,19525.0,18637.0,2020,38162.0
Puglia,14,20075.0,18791.0,2020,38866.0
Puglia,15,20477.0,19790.0,2020,40267.0
Puglia,16,20733.0,19865.0,2020,40598.0
Puglia,17,20852.0,19919.0,2020,40771.0
Puglia,18,21746.0,20299.0,2020,42045.0
Puglia,19,22251.0,20876.0,2020,43127.0
Puglia,20,22662.0,20478.0,2020,43140.0
Puglia,21,22593.0,20560.0,2020,43153.0
Puglia,22,22436.0,20589.0,2020,43025.0
Puglia,23,22357.0,20879.0,2020,43236.0
Puglia,24,22303.0,20761.0,2020,43064.0
Puglia,25,22352.0,20914.0,2020,43266.0
Puglia,26,22779.0,21513.0,2020,44292.0
Puglia,27,23631.0,22407.0,2020,46038.0
Puglia,28,23123.0,22007.0,2020,45130.0
Puglia,29,23105.0,21826.0,2020,44931.0
Puglia,30,22323.0,22094.0,2020,44417.0
Puglia,31,23131.0,22377.0,2020,45508.0
Puglia,32,22479.0,22085.0,2020,44564.0
Puglia,33,22455.0,21744.0,2020,44199.0
Puglia,34,22130.0,22104.0,2020,44234.0
Puglia,35,22758.0,23114.0,2020,45872.0
Puglia,36,23136.0,23051.0,2020,46187.0
Puglia,37,23593.0,24118.0,2020,47711.0
Puglia,38,23830.0,24600.0,2020,48430.0
Puglia,39,24791.0,25048.0,2020,49839.0
Puglia,40,26197.0,26336.0,2020,52533.0
Puglia,41,27096.0,27193.0,2020,54289.0
Puglia,42,28166.0,28316.0,2020,56482.0
Puglia,43,29075.0,29581.0,2020,58656.0
Puglia,44,29923.0,30318.0,2020,60241.0
Puglia,45,30282.0,31500.0,2020,61782.0
Puglia,46,29408.0,30463.0,2020,59871.0
Puglia,47,29115.0,29875.0,2020,58990.0
Puglia,48,29740.0,30668.0,2020,60408.0
Puglia,49,29519.0,30521.0,2020,60040.0
Puglia,50,29848.0,31736.0,2020,61584.0
Puglia,51,29980.0,31808.0,2020,61788.0
Puglia,52,30521.0,32051.0,2020,62572.0
Puglia,53,30677.0,32334.0,2020,63011.0
Puglia,54,30420.0,32582.0,2020,63002.0
Puglia,55,30986.0,32919.0,2020,63905.0
Puglia,56,28515.0,30773.0,2020,59288.0
Puglia,57,27804.0,29944.0,2020,57748.0
Puglia,58,27482.0,29649.0,2020,57131.0
Puglia,59,26785.0,28772.0,2020,55557.0
Puglia,60,25902.0,28275.0,2020,54177.0
Puglia,61,24227.0,27060.0,2020,51287.0
Puglia,62,24746.0,27181.0,2020,51927.0
Puglia,63,23939.0,26472.0,2020,50411.0
Puglia,64,23694.0,26222.0,2020,49916.0
Puglia,65,23105.0,25313.0,2020,48418.0
Puglia,66,22201.0,24493.0,2020,46694.0
Puglia,67,21194.0,23495.0,2020,44689.0
Puglia,68,21878.0,24189.0,2020,46067.0
Puglia,69,22421.0,24893.0,2020,47314.0
Puglia,70,22233.0,24666.0,2020,46899.0
Puglia,71,23184.0,26214.0,2020,49398.0
Puglia,72,21645.0,24485.0,2020,46130.0
Puglia,73,20807.0,24241.0,2020,45048.0
Puglia,74,17601.0,20157.0,2020,37758.0
Puglia,75,15445.0,18294.0,2020,33739.0
Puglia,76,15160.0,18123.0,2020,33283.0
Puglia,77,15150.0,18433.0,2020,33583.0
Puglia,78,14072.0,17264.0,2020,31336.0
Puglia,79,14831.0,18529.0,2020,33360.0
Puglia,80,13946.0,18288.0,2020,32234.0
Puglia,81,12657.0,17015.0,2020,29672.0
Puglia,82,11329.0,15902.0,2020,27231.0
Puglia,83,9964.0,14295.0,2020,24259.0
Puglia,84,9390.0,13866.0,2020,23256.0
Puglia,85,8395.0,12956.0,2020,21351.0
Puglia,86,7253.0,11676.0,2020,18929.0
Puglia,87,6227.0,10560.0,2020,16787.0
Puglia,88,5408.0,9491.0,2020,14899.0
Puglia,89,4773.0,8833.0,2020,13606.0
Puglia,90,3528.0,7024.0,2020,10552.0
Puglia,91,2817.0,6014.0,2020,8831.0
Puglia,92,2263.0,5088.0,2020,7351.0
Puglia,93,1561.0,3860.0,2020,5421.0
Puglia,94,1169.0,2934.0,2020,4103.0
Puglia,95,836.0,2139.0,2020,2975.0
Puglia,96,615.0,1744.0,2020,2359.0
Puglia,97,411.0,1214.0,2020,1625.0
Puglia,98,246.0,832.0,2020,1078.0
Puglia,99,157.0,568.0,2020,725.0
Puglia,100,176.0,706.0,2020,882.0
Puglia,Totale,1923532.0,2029773.0,2020,3953305.0
Basilicata,0,1909.0,1721.0,2020,3630.0
Basilicata,1,1843.0,1796.0,2020,3639.0
Basilicata,2,2045.0,1853.0,2020,3898.0
Basilicata,3,2044.0,1924.0,2020,3968.0
Basilicata,4,2038.0,1958.0,2020,3996.0
Basilicata,5,2047.0,1998.0,2020,4045.0
Basilicata,6,2093.0,1933.0,2020,4026.0
Basilicata,7,2309.0,2097.0,2020,4406.0
Basilicata,8,2252.0,2122.0,2020,4374.0
Basilicata,9,2321.0,2206.0,2020,4527.0
Basilicata,10,2454.0,2268.0,2020,4722.0
Basilicata,11,2528.0,2324.0,2020,4852.0
Basilicata,12,2497.0,2295.0,2020,4792.0
Basilicata,13,2579.0,2374.0,2020,4953.0
Basilicata,14,2536.0,2384.0,2020,4920.0
Basilicata,15,2618.0,2628.0,2020,5246.0
Basilicata,16,2774.0,2515.0,2020,5289.0
Basilicata,17,2834.0,2632.0,2020,5466.0
Basilicata,18,2917.0,2612.0,2020,5529.0
Basilicata,19,3073.0,2675.0,2020,5748.0
Basilicata,20,3036.0,2739.0,2020,5775.0
Basilicata,21,3105.0,2670.0,2020,5775.0
Basilicata,22,3065.0,2727.0,2020,5792.0
Basilicata,23,3101.0,2764.0,2020,5865.0
Basilicata,24,3131.0,2802.0,2020,5933.0
Basilicata,25,3126.0,2937.0,2020,6063.0
Basilicata,26,3239.0,2926.0,2020,6165.0
Basilicata,27,3444.0,3191.0,2020,6635.0
Basilicata,28,3319.0,3154.0,2020,6473.0
Basilicata,29,3502.0,3205.0,2020,6707.0
Basilicata,30,3397.0,3101.0,2020,6498.0
Basilicata,31,3340.0,3164.0,2020,6504.0
Basilicata,32,3346.0,3072.0,2020,6418.0
Basilicata,33,3251.0,3002.0,2020,6253.0
Basilicata,34,3409.0,3104.0,2020,6513.0
Basilicata,35,3415.0,3224.0,2020,6639.0
Basilicata,36,3325.0,3215.0,2020,6540.0
Basilicata,37,3319.0,3308.0,2020,6627.0
Basilicata,38,3370.0,3229.0,2020,6599.0
Basilicata,39,3384.0,3229.0,2020,6613.0
Basilicata,40,3472.0,3296.0,2020,6768.0
Basilicata,41,3735.0,3484.0,2020,7219.0
Basilicata,42,3635.0,3726.0,2020,7361.0
Basilicata,43,4005.0,3865.0,2020,7870.0
Basilicata,44,3945.0,4044.0,2020,7989.0
Basilicata,45,4144.0,4045.0,2020,8189.0
Basilicata,46,4049.0,4010.0,2020,8059.0
Basilicata,47,4047.0,4197.0,2020,8244.0
Basilicata,48,4104.0,4222.0,2020,8326.0
Basilicata,49,4124.0,4318.0,2020,8442.0
Basilicata,50,4359.0,4322.0,2020,8681.0
Basilicata,51,4322.0,4434.0,2020,8756.0
Basilicata,52,4443.0,4579.0,2020,9022.0
Basilicata,53,4221.0,4538.0,2020,8759.0
Basilicata,54,4393.0,4524.0,2020,8917.0
Basilicata,55,4529.0,4698.0,2020,9227.0
Basilicata,56,4312.0,4409.0,2020,8721.0
Basilicata,57,4371.0,4429.0,2020,8800.0
Basilicata,58,4153.0,4402.0,2020,8555.0
Basilicata,59,4047.0,4337.0,2020,8384.0
Basilicata,60,3923.0,4128.0,2020,8051.0
Basilicata,61,3821.0,3942.0,2020,7763.0
Basilicata,62,3565.0,4041.0,2020,7606.0
Basilicata,63,3749.0,3976.0,2020,7725.0
Basilicata,64,3685.0,3721.0,2020,7406.0
Basilicata,65,3571.0,3825.0,2020,7396.0
Basilicata,66,3354.0,3456.0,2020,6810.0
Basilicata,67,3217.0,3487.0,2020,6704.0
Basilicata,68,3140.0,3428.0,2020,6568.0
Basilicata,69,3335.0,3453.0,2020,6788.0
Basilicata,70,3348.0,3472.0,2020,6820.0
Basilicata,71,3310.0,3669.0,2020,6979.0
Basilicata,72,2932.0,3350.0,2020,6282.0
Basilicata,73,2676.0,3004.0,2020,5680.0
Basilicata,74,1990.0,2409.0,2020,4399.0
Basilicata,75,2019.0,2300.0,2020,4319.0
Basilicata,76,1971.0,2274.0,2020,4245.0
Basilicata,77,1851.0,2330.0,2020,4181.0
Basilicata,78,1813.0,2311.0,2020,4124.0
Basilicata,79,2140.0,2636.0,2020,4776.0
Basilicata,80,2110.0,2761.0,2020,4871.0
Basilicata,81,1942.0,2606.0,2020,4548.0
Basilicata,82,1834.0,2581.0,2020,4415.0
Basilicata,83,1673.0,2376.0,2020,4049.0
Basilicata,84,1490.0,2284.0,2020,3774.0
Basilicata,85,1432.0,2214.0,2020,3646.0
Basilicata,86,1249.0,2020.0,2020,3269.0
Basilicata,87,1052.0,1725.0,2020,2777.0
Basilicata,88,930.0,1532.0,2020,2462.0
Basilicata,89,795.0,1501.0,2020,2296.0
Basilicata,90,655.0,1201.0,2020,1856.0
Basilicata,91,505.0,965.0,2020,1470.0
Basilicata,92,401.0,822.0,2020,1223.0
Basilicata,93,266.0,671.0,2020,937.0
Basilicata,94,192.0,502.0,2020,694.0
Basilicata,95,148.0,335.0,2020,483.0
Basilicata,96,130.0,281.0,2020,411.0
Basilicata,97,89.0,202.0,2020,291.0
Basilicata,98,53.0,173.0,2020,226.0
Basilicata,99,29.0,78.0,2020,107.0
Basilicata,100,20.0,105.0,2020,125.0
Basilicata,Totale,272150.0,281104.0,2020,553254.0
Calabria,0,7242.0,6935.0,2020,14177.0
Calabria,1,7593.0,7184.0,2020,14777.0
Calabria,2,7854.0,7491.0,2020,15345.0
Calabria,3,8008.0,7620.0,2020,15628.0
Calabria,4,8155.0,7746.0,2020,15901.0
Calabria,5,8321.0,7747.0,2020,16068.0
Calabria,6,8191.0,7884.0,2020,16075.0
Calabria,7,8540.0,7943.0,2020,16483.0
Calabria,8,8638.0,8076.0,2020,16714.0
Calabria,9,8792.0,8462.0,2020,17254.0
Calabria,10,9055.0,8436.0,2020,17491.0
Calabria,11,8922.0,8771.0,2020,17693.0
Calabria,12,9189.0,8571.0,2020,17760.0
Calabria,13,9466.0,8812.0,2020,18278.0
Calabria,14,9340.0,8739.0,2020,18079.0
Calabria,15,9660.0,9005.0,2020,18665.0
Calabria,16,9666.0,9034.0,2020,18700.0
Calabria,17,9662.0,8911.0,2020,18573.0
Calabria,18,9990.0,9413.0,2020,19403.0
Calabria,19,10465.0,9602.0,2020,20067.0
Calabria,20,10549.0,9502.0,2020,20051.0
Calabria,21,10677.0,9766.0,2020,20443.0
Calabria,22,10414.0,9621.0,2020,20035.0
Calabria,23,10753.0,9780.0,2020,20533.0
Calabria,24,10722.0,10162.0,2020,20884.0
Calabria,25,11050.0,10278.0,2020,21328.0
Calabria,26,11393.0,10751.0,2020,22144.0
Calabria,27,11535.0,11219.0,2020,22754.0
Calabria,28,11548.0,11025.0,2020,22573.0
Calabria,29,11879.0,11265.0,2020,23144.0
Calabria,30,12007.0,11407.0,2020,23414.0
Calabria,31,12188.0,11734.0,2020,23922.0
Calabria,32,11835.0,11632.0,2020,23467.0
Calabria,33,11741.0,11443.0,2020,23184.0
Calabria,34,11803.0,11492.0,2020,23295.0
Calabria,35,12207.0,11456.0,2020,23663.0
Calabria,36,11944.0,11578.0,2020,23522.0
Calabria,37,12040.0,11953.0,2020,23993.0
Calabria,38,12072.0,11877.0,2020,23949.0
Calabria,39,12249.0,12010.0,2020,24259.0
Calabria,40,12406.0,12420.0,2020,24826.0
Calabria,41,12670.0,12490.0,2020,25160.0
Calabria,42,12650.0,13040.0,2020,25690.0
Calabria,43,13353.0,13586.0,2020,26939.0
Calabria,44,13337.0,13524.0,2020,26861.0
Calabria,45,13358.0,13825.0,2020,27183.0
Calabria,46,13368.0,13749.0,2020,27117.0
Calabria,47,13306.0,14041.0,2020,27347.0
Calabria,48,13422.0,14341.0,2020,27763.0
Calabria,49,13335.0,14196.0,2020,27531.0
Calabria,50,13915.0,15136.0,2020,29051.0
Calabria,51,13847.0,14772.0,2020,28619.0
Calabria,52,13980.0,14973.0,2020,28953.0
Calabria,53,13953.0,15094.0,2020,29047.0
Calabria,54,13902.0,14902.0,2020,28804.0
Calabria,55,14534.0,15528.0,2020,30062.0
Calabria,56,13690.0,14683.0,2020,28373.0
Calabria,57,13590.0,14691.0,2020,28281.0
Calabria,58,13455.0,14502.0,2020,27957.0
Calabria,59,13360.0,14297.0,2020,27657.0
Calabria,60,13049.0,13911.0,2020,26960.0
Calabria,61,12129.0,12927.0,2020,25056.0
Calabria,62,12620.0,13143.0,2020,25763.0
Calabria,63,12102.0,12773.0,2020,24875.0
Calabria,64,12021.0,12652.0,2020,24673.0
Calabria,65,11962.0,12513.0,2020,24475.0
Calabria,66,11269.0,11776.0,2020,23045.0
Calabria,67,10575.0,11170.0,2020,21745.0
Calabria,68,10693.0,11461.0,2020,22154.0
Calabria,69,10886.0,11583.0,2020,22469.0
Calabria,70,10811.0,11549.0,2020,22360.0
Calabria,71,10748.0,11735.0,2020,22483.0
Calabria,72,10411.0,11297.0,2020,21708.0
Calabria,73,9344.0,10387.0,2020,19731.0
Calabria,74,7222.0,8012.0,2020,15234.0
Calabria,75,7211.0,7914.0,2020,15125.0
Calabria,76,6829.0,7948.0,2020,14777.0
Calabria,77,6695.0,7810.0,2020,14505.0
Calabria,78,6307.0,7470.0,2020,13777.0
Calabria,79,6994.0,8514.0,2020,15508.0
Calabria,80,6570.0,8203.0,2020,14773.0
Calabria,81,5819.0,7815.0,2020,13634.0
Calabria,82,5411.0,7238.0,2020,12649.0
Calabria,83,4925.0,7067.0,2020,11992.0
Calabria,84,4693.0,6774.0,2020,11467.0
Calabria,85,4214.0,6282.0,2020,10496.0
Calabria,86,3942.0,5976.0,2020,9918.0
Calabria,87,3215.0,5408.0,2020,8623.0
Calabria,88,2741.0,4790.0,2020,7531.0
Calabria,89,2377.0,4260.0,2020,6637.0
Calabria,90,1817.0,3468.0,2020,5285.0
Calabria,91,1442.0,2853.0,2020,4295.0
Calabria,92,1091.0,2340.0,2020,3431.0
Calabria,93,859.0,1940.0,2020,2799.0
Calabria,94,618.0,1508.0,2020,2126.0
Calabria,95,461.0,1209.0,2020,1670.0
Calabria,96,321.0,881.0,2020,1202.0
Calabria,97,215.0,599.0,2020,814.0
Calabria,98,128.0,439.0,2020,567.0
Calabria,99,107.0,302.0,2020,409.0
Calabria,100,102.0,358.0,2020,460.0
Calabria,Totale,927732.0,966378.0,2020,1894110.0
Sicilia,0,19488.0,18195.0,2020,37683.0
Sicilia,1,20256.0,19203.0,2020,39459.0
Sicilia,2,20891.0,19611.0,2020,40502.0
Sicilia,3,20751.0,19838.0,2020,40589.0
Sicilia,4,21529.0,20374.0,2020,41903.0
Sicilia,5,22057.0,20915.0,2020,42972.0
Sicilia,6,21726.0,20690.0,2020,42416.0
Sicilia,7,22710.0,21832.0,2020,44542.0
Sicilia,8,22821.0,21821.0,2020,44642.0
Sicilia,9,23580.0,22622.0,2020,46202.0
Sicilia,10,24275.0,22932.0,2020,47207.0
Sicilia,11,24683.0,23379.0,2020,48062.0
Sicilia,12,24463.0,23301.0,2020,47764.0
Sicilia,13,25352.0,23396.0,2020,48748.0
Sicilia,14,25611.0,24088.0,2020,49699.0
Sicilia,15,26092.0,24534.0,2020,50626.0
Sicilia,16,25985.0,24631.0,2020,50616.0
Sicilia,17,26176.0,24719.0,2020,50895.0
Sicilia,18,27305.0,25070.0,2020,52375.0
Sicilia,19,28659.0,25340.0,2020,53999.0
Sicilia,20,28678.0,25985.0,2020,54663.0
Sicilia,21,28075.0,25643.0,2020,53718.0
Sicilia,22,28022.0,25752.0,2020,53774.0
Sicilia,23,27871.0,26180.0,2020,54051.0
Sicilia,24,27989.0,26453.0,2020,54442.0
Sicilia,25,28555.0,26938.0,2020,55493.0
Sicilia,26,29130.0,27961.0,2020,57091.0
Sicilia,27,30233.0,28989.0,2020,59222.0
Sicilia,28,29629.0,28535.0,2020,58164.0
Sicilia,29,29762.0,28777.0,2020,58539.0
Sicilia,30,29554.0,28983.0,2020,58537.0
Sicilia,31,29804.0,28980.0,2020,58784.0
Sicilia,32,28961.0,28320.0,2020,57281.0
Sicilia,33,29061.0,28271.0,2020,57332.0
Sicilia,34,29050.0,28774.0,2020,57824.0
Sicilia,35,29539.0,29453.0,2020,58992.0
Sicilia,36,29237.0,28994.0,2020,58231.0
Sicilia,37,30104.0,30026.0,2020,60130.0
Sicilia,38,30018.0,30211.0,2020,60229.0
Sicilia,39,31125.0,31282.0,2020,62407.0
Sicilia,40,31279.0,31818.0,2020,63097.0
Sicilia,41,32277.0,32617.0,2020,64894.0
Sicilia,42,32518.0,33320.0,2020,65838.0
Sicilia,43,34156.0,34892.0,2020,69048.0
Sicilia,44,35059.0,35749.0,2020,70808.0
Sicilia,45,36070.0,37287.0,2020,73357.0
Sicilia,46,35331.0,36689.0,2020,72020.0
Sicilia,47,35515.0,36900.0,2020,72415.0
Sicilia,48,35899.0,37950.0,2020,73849.0
Sicilia,49,35313.0,37800.0,2020,73113.0
Sicilia,50,36784.0,38684.0,2020,75468.0
Sicilia,51,36149.0,38350.0,2020,74499.0
Sicilia,52,36539.0,38690.0,2020,75229.0
Sicilia,53,36149.0,38539.0,2020,74688.0
Sicilia,54,35700.0,38390.0,2020,74090.0
Sicilia,55,36835.0,39178.0,2020,76013.0
Sicilia,56,34654.0,37217.0,2020,71871.0
Sicilia,57,34267.0,37317.0,2020,71584.0
Sicilia,58,33390.0,36380.0,2020,69770.0
Sicilia,59,33158.0,36595.0,2020,69753.0
Sicilia,60,31691.0,34474.0,2020,66165.0
Sicilia,61,30481.0,33517.0,2020,63998.0
Sicilia,62,30309.0,33475.0,2020,63784.0
Sicilia,63,29441.0,32703.0,2020,62144.0
Sicilia,64,29611.0,32169.0,2020,61780.0
Sicilia,65,28805.0,32276.0,2020,61081.0
Sicilia,66,26652.0,29500.0,2020,56152.0
Sicilia,67,26145.0,29250.0,2020,55395.0
Sicilia,68,25937.0,28659.0,2020,54596.0
Sicilia,69,26466.0,29640.0,2020,56106.0
Sicilia,70,26276.0,29773.0,2020,56049.0
Sicilia,71,26951.0,30604.0,2020,57555.0
Sicilia,72,26240.0,30044.0,2020,56284.0
Sicilia,73,23517.0,27529.0,2020,51046.0
Sicilia,74,19755.0,23006.0,2020,42761.0
Sicilia,75,18483.0,22064.0,2020,40547.0
Sicilia,76,17194.0,20955.0,2020,38149.0
Sicilia,77,16504.0,20735.0,2020,37239.0
Sicilia,78,16017.0,20565.0,2020,36582.0
Sicilia,79,17594.0,23159.0,2020,40753.0
Sicilia,80,16466.0,21729.0,2020,38195.0
Sicilia,81,14937.0,20477.0,2020,35414.0
Sicilia,82,12769.0,18005.0,2020,30774.0
Sicilia,83,11808.0,16991.0,2020,28799.0
Sicilia,84,10951.0,16390.0,2020,27341.0
Sicilia,85,10100.0,15647.0,2020,25747.0
Sicilia,86,8991.0,14285.0,2020,23276.0
Sicilia,87,7280.0,12422.0,2020,19702.0
Sicilia,88,6248.0,11220.0,2020,17468.0
Sicilia,89,5666.0,10748.0,2020,16414.0
Sicilia,90,4041.0,8157.0,2020,12198.0
Sicilia,91,3275.0,6976.0,2020,10251.0
Sicilia,92,2500.0,5317.0,2020,7817.0
Sicilia,93,1862.0,4577.0,2020,6439.0
Sicilia,94,1355.0,3483.0,2020,4838.0
Sicilia,95,988.0,2813.0,2020,3801.0
Sicilia,96,655.0,1859.0,2020,2514.0
Sicilia,97,452.0,1415.0,2020,1867.0
Sicilia,98,296.0,903.0,2020,1199.0
Sicilia,99,178.0,651.0,2020,829.0
Sicilia,100,206.0,826.0,2020,1032.0
Sicilia,Totale,2370942.0,2504348.0,2020,4875290.0
Sardegna,0,4424.0,4293.0,2020,8717.0
Sardegna,1,4754.0,4457.0,2020,9211.0
Sardegna,2,5176.0,4830.0,2020,10006.0
Sardegna,3,5408.0,5015.0,2020,10423.0
Sardegna,4,5717.0,5250.0,2020,10967.0
Sardegna,5,5828.0,5424.0,2020,11252.0
Sardegna,6,5970.0,5644.0,2020,11614.0
Sardegna,7,6331.0,5875.0,2020,12206.0
Sardegna,8,6609.0,6234.0,2020,12843.0
Sardegna,9,6865.0,6379.0,2020,13244.0
Sardegna,10,6938.0,6339.0,2020,13277.0
Sardegna,11,6848.0,6479.0,2020,13327.0
Sardegna,12,6801.0,6496.0,2020,13297.0
Sardegna,13,6961.0,6433.0,2020,13394.0
Sardegna,14,7017.0,6459.0,2020,13476.0
Sardegna,15,6891.0,6375.0,2020,13266.0
Sardegna,16,7117.0,6637.0,2020,13754.0
Sardegna,17,6949.0,6588.0,2020,13537.0
Sardegna,18,7132.0,6751.0,2020,13883.0
Sardegna,19,7597.0,6844.0,2020,14441.0
Sardegna,20,7690.0,6689.0,2020,14379.0
Sardegna,21,7575.0,6538.0,2020,14113.0
Sardegna,22,7587.0,6639.0,2020,14226.0
Sardegna,23,7779.0,6720.0,2020,14499.0
Sardegna,24,7940.0,6925.0,2020,14865.0
Sardegna,25,7930.0,7105.0,2020,15035.0
Sardegna,26,8042.0,7457.0,2020,15499.0
Sardegna,27,8363.0,7790.0,2020,16153.0
Sardegna,28,8596.0,7884.0,2020,16480.0
Sardegna,29,8769.0,8257.0,2020,17026.0
Sardegna,30,8824.0,8158.0,2020,16982.0
Sardegna,31,8872.0,8363.0,2020,17235.0
Sardegna,32,8912.0,8492.0,2020,17404.0
Sardegna,33,8863.0,8554.0,2020,17417.0
Sardegna,34,9273.0,8846.0,2020,18119.0
Sardegna,35,9525.0,8913.0,2020,18438.0
Sardegna,36,9579.0,9363.0,2020,18942.0
Sardegna,37,10236.0,9754.0,2020,19990.0
Sardegna,38,10085.0,9965.0,2020,20050.0
Sardegna,39,10730.0,10125.0,2020,20855.0
Sardegna,40,10588.0,10462.0,2020,21050.0
Sardegna,41,11782.0,11308.0,2020,23090.0
Sardegna,42,12024.0,11493.0,2020,23517.0
Sardegna,43,12380.0,12088.0,2020,24468.0
Sardegna,44,12958.0,12763.0,2020,25721.0
Sardegna,45,13758.0,13110.0,2020,26868.0
Sardegna,46,13690.0,13191.0,2020,26881.0
Sardegna,47,13439.0,13136.0,2020,26575.0
Sardegna,48,13078.0,13469.0,2020,26547.0
Sardegna,49,13228.0,12985.0,2020,26213.0
Sardegna,50,13507.0,13562.0,2020,27069.0
Sardegna,51,12974.0,13374.0,2020,26348.0
Sardegna,52,13541.0,13653.0,2020,27194.0
Sardegna,53,13569.0,13854.0,2020,27423.0
Sardegna,54,13588.0,13756.0,2020,27344.0
Sardegna,55,13807.0,14099.0,2020,27906.0
Sardegna,56,12979.0,13695.0,2020,26674.0
Sardegna,57,12692.0,13305.0,2020,25997.0
Sardegna,58,12336.0,13115.0,2020,25451.0
Sardegna,59,12153.0,12509.0,2020,24662.0
Sardegna,60,11773.0,12344.0,2020,24117.0
Sardegna,61,11535.0,12147.0,2020,23682.0
Sardegna,62,11437.0,12210.0,2020,23647.0
Sardegna,63,11188.0,11944.0,2020,23132.0
Sardegna,64,10855.0,11535.0,2020,22390.0
Sardegna,65,11009.0,11642.0,2020,22651.0
Sardegna,66,10445.0,11043.0,2020,21488.0
Sardegna,67,10181.0,10951.0,2020,21132.0
Sardegna,68,9898.0,10800.0,2020,20698.0
Sardegna,69,9968.0,10736.0,2020,20704.0
Sardegna,70,9622.0,10381.0,2020,20003.0
Sardegna,71,9616.0,10636.0,2020,20252.0
Sardegna,72,9162.0,10140.0,2020,19302.0
Sardegna,73,8586.0,9327.0,2020,17913.0
Sardegna,74,7730.0,8896.0,2020,16626.0
Sardegna,75,7408.0,8712.0,2020,16120.0
Sardegna,76,6823.0,8586.0,2020,15409.0
Sardegna,77,6992.0,8595.0,2020,15587.0
Sardegna,78,6228.0,7986.0,2020,14214.0
Sardegna,79,6683.0,8748.0,2020,15431.0
Sardegna,80,6162.0,8016.0,2020,14178.0
Sardegna,81,5268.0,7217.0,2020,12485.0
Sardegna,82,4663.0,6645.0,2020,11308.0
Sardegna,83,4312.0,6305.0,2020,10617.0
Sardegna,84,3596.0,5745.0,2020,9341.0
Sardegna,85,3615.0,5606.0,2020,9221.0
Sardegna,86,3244.0,5204.0,2020,8448.0
Sardegna,87,2651.0,4648.0,2020,7299.0
Sardegna,88,2293.0,4017.0,2020,6310.0
Sardegna,89,2064.0,3901.0,2020,5965.0
Sardegna,90,1550.0,3283.0,2020,4833.0
Sardegna,91,1241.0,2805.0,2020,4046.0
Sardegna,92,921.0,2235.0,2020,3156.0
Sardegna,93,767.0,1835.0,2020,2602.0
Sardegna,94,480.0,1334.0,2020,1814.0
Sardegna,95,374.0,1127.0,2020,1501.0
Sardegna,96,279.0,754.0,2020,1033.0
Sardegna,97,198.0,579.0,2020,777.0
Sardegna,98,126.0,377.0,2020,503.0
Sardegna,99,82.0,306.0,2020,388.0
Sardegna,100,97.0,361.0,2020,458.0
Sardegna,Totale,791696.0,819925.0,2020,1611621.0
